{
   "data":{
      "submissions":[
         {
            "_id":"59f72e05a6f6fe0015501c35",
            "companyId":"59f72d31a6f6fe00155013e5",
            "answers":{
               "VOL_CURR":"ARS",
               "ORG_TYPE":"10",
               "NUM_EMP":"123",
               "ORG_OWN":"10",
               "VOL_REV":"123",
               "VOL_OPBUD":"123",
               "CD_024":"123",
               "CD_025":"",
               "CO_ACT_PROD":[
                  ""
               ],
               "CD_248":"",
               "CD_251":"",
               "CD_071":"",
               "CD_073":""
            },
            "validation":[

            ],
            "timestamp":"2017-10-30T13:49:57.200Z",
            "sectionCode":"CD_000",
            "creationDate":"2017-10-30T13:49:57.200Z",
            "formStatus":[
               {
                  "code":"SG_ORG_INFO_01",
                  "visible":true,
                  "visited":true,
                  "complete":true,
                  "valid":true
               },
               {
                  "code":"QG_CompData_02",
                  "visible":true,
                  "visited":true,
                  "complete":false,
                  "valid":true
               },
               {
                  "code":"QG_CompData_03",
                  "visible":true,
                  "visited":true,
                  "complete":true,
                  "valid":true
               },
               {
                  "code":"SG_CD_10",
                  "visible":true,
                  "visited":false,
                  "complete":false,
                  "valid":true
               },
               {
                  "code":"SG_QG_9",
                  "visible":true,
                  "visited":false,
                  "complete":false,
                  "valid":true
               }
            ]
         }
      ]
   }
}