timeStamp,elapsed,label,responseCode,threadName,success,bytes,grpThreads,allThreads,Latency,SampleCount,ErrorCount,Hostname,Connect
1512634252518,505,FileUpload B21_6713CSV_SkipInitialRow,Non HTTP response code: java.io.FileNotFoundException,Thread Group_Prod1 1-1,false,2739,1,1,0,1,1,INFPU07042,502
1512634253025,261,FileUpload B21_6713CSV_SkipMiddleBlankRows,Non HTTP response code: java.io.FileNotFoundException,Thread Group_Prod1 1-1,false,2739,1,1,0,1,1,INFPU07042,258
1512634253287,260,FileUpload B21_6713Excel_SkipInitialRow,Non HTTP response code: java.io.FileNotFoundException,Thread Group_Prod1 1-1,false,2739,1,1,0,1,1,INFPU07042,259
1512634253547,252,FileUpload B21_6713Excel_SkipLastBlankRow,Non HTTP response code: java.io.FileNotFoundException,Thread Group_Prod1 1-1,false,2739,1,1,0,1,1,INFPU07042,250
1512634253800,260,FileUpload B21_6713Excel_SkipMiddleRow,Non HTTP response code: java.io.FileNotFoundException,Thread Group_Prod1 1-1,false,2739,1,1,0,1,1,INFPU07042,258
1512634287966,326,FileUpload B21_6713CSV_SkipInitialRow,Non HTTP response code: java.io.FileNotFoundException,Thread Group_Prod1 1-1,false,2739,1,1,0,1,1,INFPU07042,324
1512634288294,256,FileUpload B21_6713CSV_SkipMiddleBlankRows,Non HTTP response code: java.io.FileNotFoundException,Thread Group_Prod1 1-1,false,2739,1,1,0,1,1,INFPU07042,255
1512634288551,253,FileUpload B21_6713Excel_SkipInitialRow,Non HTTP response code: java.io.FileNotFoundException,Thread Group_Prod1 1-1,false,2739,1,1,0,1,1,INFPU07042,252
1512634288806,264,FileUpload B21_6713Excel_SkipLastBlankRow,Non HTTP response code: java.io.FileNotFoundException,Thread Group_Prod1 1-1,false,2739,1,1,0,1,1,INFPU07042,260
1512634289072,256,FileUpload B21_6713Excel_SkipMiddleRow,Non HTTP response code: java.io.FileNotFoundException,Thread Group_Prod1 1-1,false,2739,1,1,0,1,1,INFPU07042,254
1512634417017,332,FileUpload B21_6713CSV_SkipInitialRow,Non HTTP response code: java.io.FileNotFoundException,Thread Group_Prod1 1-1,false,2739,1,1,0,1,1,INFPU07042,329
1512634417387,262,FileUpload B21_6713CSV_SkipMiddleBlankRows,Non HTTP response code: java.io.FileNotFoundException,Thread Group_Prod1 1-1,false,2739,1,1,0,1,1,INFPU07042,259
1512634417685,256,FileUpload B21_6713Excel_SkipInitialRow,Non HTTP response code: java.io.FileNotFoundException,Thread Group_Prod1 1-1,false,2739,1,1,0,1,1,INFPU07042,253
1512634417989,261,FileUpload B21_6713Excel_SkipLastBlankRow,Non HTTP response code: java.io.FileNotFoundException,Thread Group_Prod1 1-1,false,2739,1,1,0,1,1,INFPU07042,259
1512634418283,254,FileUpload B21_6713Excel_SkipMiddleRow,Non HTTP response code: java.io.FileNotFoundException,Thread Group_Prod1 1-1,false,2739,1,1,0,1,1,INFPU07042,251
1512634523346,0,FileUpload B21_6713CSV_SkipInitialRow,Non HTTP response code: java.net.URISyntaxException,Thread Group_Prod1 1-1,false,1130,1,1,0,1,1,INFPU07042,0
1512634523356,334,FileUpload B21_6713CSV_SkipMiddleBlankRows,Non HTTP response code: java.io.FileNotFoundException,Thread Group_Prod1 1-1,false,2739,1,1,0,1,1,INFPU07042,332
1512634523737,253,FileUpload B21_6713Excel_SkipInitialRow,Non HTTP response code: java.io.FileNotFoundException,Thread Group_Prod1 1-1,false,2739,1,1,0,1,1,INFPU07042,250
1512634524028,262,FileUpload B21_6713Excel_SkipLastBlankRow,Non HTTP response code: java.io.FileNotFoundException,Thread Group_Prod1 1-1,false,2739,1,1,0,1,1,INFPU07042,260
1512634524319,262,FileUpload B21_6713Excel_SkipMiddleRow,Non HTTP response code: java.io.FileNotFoundException,Thread Group_Prod1 1-1,false,2739,1,1,0,1,1,INFPU07042,259
1512634630297,0,FileUpload B21_6713CSV_SkipInitialRow,Non HTTP response code: java.net.URISyntaxException,Thread Group_Prod1 1-1,false,1130,1,1,0,1,1,INFPU07042,0
1512634630307,328,FileUpload B21_6713CSV_SkipMiddleBlankRows,Non HTTP response code: java.io.FileNotFoundException,Thread Group_Prod1 1-1,false,2739,1,1,0,1,1,INFPU07042,325
1512634630672,255,FileUpload B21_6713Excel_SkipInitialRow,Non HTTP response code: java.io.FileNotFoundException,Thread Group_Prod1 1-1,false,2739,1,1,0,1,1,INFPU07042,252
1512634630963,261,FileUpload B21_6713Excel_SkipLastBlankRow,Non HTTP response code: java.io.FileNotFoundException,Thread Group_Prod1 1-1,false,2739,1,1,0,1,1,INFPU07042,258
1512634631259,259,FileUpload B21_6713Excel_SkipMiddleRow,Non HTTP response code: java.io.FileNotFoundException,Thread Group_Prod1 1-1,false,2739,1,1,0,1,1,INFPU07042,256
1512634704103,0,FileUpload B21_6713CSV_SkipInitialRow,Non HTTP response code: java.net.URISyntaxException,Thread Group_Prod1 1-1,false,1130,1,1,0,1,1,INFPU07042,0
1512634704113,504,FileUpload B21_6713CSV_SkipMiddleBlankRows,Non HTTP response code: java.io.FileNotFoundException,Thread Group_Prod1 1-1,false,2739,1,1,0,1,1,INFPU07042,501
1512634704654,262,FileUpload B21_6713Excel_SkipInitialRow,Non HTTP response code: java.io.FileNotFoundException,Thread Group_Prod1 1-1,false,2739,1,1,0,1,1,INFPU07042,259
1512634704951,257,FileUpload B21_6713Excel_SkipLastBlankRow,Non HTTP response code: java.io.FileNotFoundException,Thread Group_Prod1 1-1,false,2739,1,1,0,1,1,INFPU07042,254
1512634705249,262,FileUpload B21_6713Excel_SkipMiddleRow,Non HTTP response code: java.io.FileNotFoundException,Thread Group_Prod1 1-1,false,2739,1,1,0,1,1,INFPU07042,259
1512634757490,860,FileUpload B21_6713CSV_SkipInitialRow,200,Thread Group_Prod1 1-1,true,1623,1,1,860,1,0,INFPU07042,333
1512634758387,3,FileUpload B21_6713CSV_SkipMiddleBlankRows,Non HTTP response code: java.io.FileNotFoundException,Thread Group_Prod1 1-1,false,2739,1,1,0,1,1,INFPU07042,0
1512634758414,255,FileUpload B21_6713Excel_SkipInitialRow,Non HTTP response code: java.io.FileNotFoundException,Thread Group_Prod1 1-1,false,2739,1,1,0,1,1,INFPU07042,253
1512634758707,252,FileUpload B21_6713Excel_SkipLastBlankRow,Non HTTP response code: java.io.FileNotFoundException,Thread Group_Prod1 1-1,false,2739,1,1,0,1,1,INFPU07042,249
1512634758996,253,FileUpload B21_6713Excel_SkipMiddleRow,Non HTTP response code: java.io.FileNotFoundException,Thread Group_Prod1 1-1,false,2739,1,1,0,1,1,INFPU07042,251
1512634781132,765,FileUpload B21_6713CSV_SkipInitialRow,200,Thread Group_Prod1 1-1,true,1623,1,1,764,1,0,INFPU07042,252
1512634781946,2,FileUpload B21_6713CSV_SkipMiddleBlankRows,Non HTTP response code: java.io.FileNotFoundException,Thread Group_Prod1 1-1,false,2751,1,1,0,1,1,INFPU07042,0
1512634781978,261,FileUpload B21_6713Excel_SkipInitialRow,Non HTTP response code: java.io.FileNotFoundException,Thread Group_Prod1 1-1,false,2739,1,1,0,1,1,INFPU07042,258
1512634782281,254,FileUpload B21_6713Excel_SkipLastBlankRow,Non HTTP response code: java.io.FileNotFoundException,Thread Group_Prod1 1-1,false,2739,1,1,0,1,1,INFPU07042,252
1512634782579,267,FileUpload B21_6713Excel_SkipMiddleRow,Non HTTP response code: java.io.FileNotFoundException,Thread Group_Prod1 1-1,false,2739,1,1,0,1,1,INFPU07042,264
1512634868799,898,FileUpload B21_6713CSV_SkipInitialRow,200,Thread Group_Prod1 1-1,true,1623,1,1,898,1,0,INFPU07042,329
1512634869738,263,FileUpload B21_6713CSV_SkipMiddleBlankRows,200,Thread Group_Prod1 1-1,false,1988,1,1,263,1,1,INFPU07042,0
1512634870060,2,FileUpload B21_6713Excel_SkipInitialRow,Non HTTP response code: java.io.FileNotFoundException,Thread Group_Prod1 1-1,false,2757,1,1,0,1,1,INFPU07042,0
1512634870088,264,FileUpload B21_6713Excel_SkipLastBlankRow,Non HTTP response code: java.io.FileNotFoundException,Thread Group_Prod1 1-1,false,2754,1,1,0,1,1,INFPU07042,260
1512634870394,265,FileUpload B21_6713Excel_SkipMiddleRow,Non HTTP response code: java.io.FileNotFoundException,Thread Group_Prod1 1-1,false,2757,1,1,0,1,1,INFPU07042,262
1512635000098,925,FileUpload B21_6713CSV_SkipInitialRow,200,Thread Group_Prod1 1-1,true,1623,1,1,921,1,0,INFPU07042,326
1512635001068,264,FileUpload B21_6713CSV_SkipMiddleBlankRows,200,Thread Group_Prod1 1-1,false,1988,1,1,263,1,1,INFPU07042,0
1512635001365,682,FileUpload B21_6713Excel_SkipInitialRow,200,Thread Group_Prod1 1-1,true,1623,1,1,682,1,0,INFPU07042,0
1512635002090,1453,FileUpload B21_6713Excel_SkipLastBlankRow,200,Thread Group_Prod1 1-1,false,1623,1,1,1453,1,1,INFPU07042,0
1512635003580,1090,FileUpload B21_6713Excel_SkipMiddleRow,200,Thread Group_Prod1 1-1,false,1988,1,1,1089,1,1,INFPU07042,261
1512641091742,848,NoFileUpload B17_PE7631_metaData,200,Thread Group_Prod1 1-1,true,590,1,1,848,1,0,INFPU07042,320
1512641092615,350,FileUpload B21_6713CSV_SkipInitialRow,200,Thread Group_Prod1 1-1,true,1623,1,1,350,1,0,INFPU07042,0
1512641092985,271,FileUpload B21_6713CSV_SkipMiddleBlankRows,200,Thread Group_Prod1 1-1,false,1988,1,1,271,1,1,INFPU07042,0
1512641093289,642,FileUpload B21_6713Excel_SkipInitialRow,200,Thread Group_Prod1 1-1,true,1623,1,1,642,1,0,INFPU07042,0
1512641093976,1120,FileUpload B21_6713Excel_SkipLastBlankRow,200,Thread Group_Prod1 1-1,false,1623,1,1,1120,1,1,INFPU07042,250
1512641095143,602,FileUpload B21_6713Excel_SkipMiddleRow,200,Thread Group_Prod1 1-1,false,1988,1,1,601,1,1,INFPU07042,0
1512642098423,901,NoFileUpload B17_PE7631_metaData,200,Thread Group_Prod1 1-1,true,590,1,1,900,1,0,INFPU07042,393
1512642099365,263,FileUpload B21_6713CSV_SkipInitialRow,200,Thread Group_Prod1 1-1,true,1623,1,1,262,1,0,INFPU07042,0
1512642099662,257,FileUpload B21_6713CSV_SkipMiddleBlankRows,200,Thread Group_Prod1 1-1,true,1988,1,1,257,1,0,INFPU07042,0
1512642099966,523,FileUpload B21_6713Excel_SkipInitialRow,200,Thread Group_Prod1 1-1,true,1623,1,1,522,1,0,INFPU07042,0
1512642100534,2837,FileUpload B21_6713Excel_SkipLastBlankRow,200,Thread Group_Prod1 1-1,true,1623,1,1,1003,1,0,INFPU07042,249
1512642103416,1013,FileUpload B21_6713Excel_SkipMiddleRow,200,Thread Group_Prod1 1-1,true,1988,1,1,1012,1,0,INFPU07042,250
1512642884655,1132,FileUpload D22_NullValidation_Excel_Expression Evaluated_ERROR,200,Thread Group_Prod1 1-1,false,1786,1,1,1132,1,1,INFPU07042,346
1512642885788,517,FileUpload D22_NullValidation_Excel_Expression Evaluated_AUTOCORRECT,200,Thread Group_Prod1 1-1,false,1786,1,1,516,1,1,INFPU07042,0
1512642886305,534,FileUpload D22_NullValidation_Excel_Expression not Evaluated_ERROR,200,Thread Group_Prod1 1-1,false,2191,1,1,533,1,1,INFPU07042,0
1512642886840,1010,FileUpload D22_NullValidation_Excel_Expression not Evaluated_AUTOCORRECT,200,Thread Group_Prod1 1-1,false,2191,1,1,1009,1,1,INFPU07042,250
1512642887851,259,FileUpload D22_NullValidation_Csv_Expression Evaluated_ERROR,200,Thread Group_Prod1 1-1,false,1740,1,1,259,1,1,INFPU07042,0
1512642888111,255,FileUpload D22_NullValidation_Csv_Expression Evaluated_AUTOCORRECT,200,Thread Group_Prod1 1-1,false,1740,1,1,255,1,1,INFPU07042,0
1512642888367,263,FileUpload D22_NullValidation_Csv_Expression not Evaluated_AUTOCORRECT,200,Thread Group_Prod1 1-1,false,3004,1,1,262,1,1,INFPU07042,0
1512642888631,260,FileUpload D22_NullValidation_Csv_Expression not Evaluated_ERROR,200,Thread Group_Prod1 1-1,false,3004,1,1,259,1,1,INFPU07042,0
1512642888891,499,FileUpload D22_NullValidation_JSON_Expression Evaluated_ERROR,200,Thread Group_Prod1 1-1,false,102,1,1,499,1,1,INFPU07042,249
1512642889390,249,FileUpload D22_NullValidation_JSON_Expression Evaluated_AUTOCORRECT,200,Thread Group_Prod1 1-1,false,102,1,1,249,1,1,INFPU07042,0
1512642889639,251,FileUpload D22_NullValidation_JSON_Expression not Evaluated_ERROR,200,Thread Group_Prod1 1-1,false,102,1,1,251,1,1,INFPU07042,0
1512642889890,249,FileUpload D22_NullValidation_JSON_Expression not Evaluated_AUTOCORRECT,200,Thread Group_Prod1 1-1,false,102,1,1,249,1,1,INFPU07042,0
1512642890139,255,FileUpload B21_6713CSV_SkipInitialRow,200,Thread Group_Prod1 1-1,true,1623,1,1,254,1,0,INFPU07042,0
1512642890414,254,FileUpload B21_6713CSV_SkipMiddleBlankRows,200,Thread Group_Prod1 1-1,true,1988,1,1,253,1,0,INFPU07042,0
1512642890690,513,FileUpload B21_6713Excel_SkipInitialRow,200,Thread Group_Prod1 1-1,true,1623,1,1,513,1,0,INFPU07042,0
1512642891225,1023,FileUpload B21_6713Excel_SkipLastBlankRow,200,Thread Group_Prod1 1-1,true,1623,1,1,1022,1,0,INFPU07042,252
1512642892275,513,FileUpload B21_6713Excel_SkipMiddleRow,200,Thread Group_Prod1 1-1,true,1988,1,1,513,1,0,INFPU07042,0
