{  
   "entities":[  
      {  
         "sectionStructure":{  
            "columns":[  
               {  
                  "code":"city",
                  "displayLabel":"city1",
				  "dataType":"string",
                  "validations":[  
                     {  
                        "errorType":"ERROR",
                        "validationType":"expression",
                        "expression":"DECODE(LENGTH(this.city) > 0,true,false)",
                        "errorGroup":"Personal",
                        "message":"Length of Department"
                     }
                  ]
               },
               {   
                  "code":"COUNTRY_CODE",
                  "displayLabel":"COUNTRY_CODE1",
                  "dataType":"string",
				   "validations":[  
                     {  
                        "errorType":"ERROR",
                        "validationType":"expression",
                        "expression":"DECODE(LENGTH(this.COUNTRY_CODE) > 0,true,false)",
                        "errorGroup":"Personal",
                        "message":"Length of Department"
                     }
                  ]
               }
            ]
         },
         
         "contextData":{  
            "uniqueIdColumnCode":"ID",
            "campaignId":"11111",
			"companyName":"Company1",
			"entityNameColumnCode":"city1",
			 "ctryCode":"US",
            "sectionId":"22222",
            "grpCode":"3333",
            "cpyCode":"4444",
            "industry":{  
               "superSector":"CG",
               "sector":"100",
               "subSector":"101"
            },
            "orgSize":123
         }
      }
   ]
}