{
    "$schema": "http://json-schema.org/draft-04/schema#",
    "definitions": {},
    "id": "http://example.com/example.json",
    "properties": {
        "contextData": {
            "id": "/properties/contextData",
            "properties": {
                "campaignId": {
                    "id": "/properties/contextData/properties/campaignId",
                    "type": "string"
                },
                "cpyCode": {
                    "id": "/properties/contextData/properties/cpyCode",
                    "type": "string"
                },
                "ctryCode": {
                    "id": "/properties/contextData/properties/ctryCode",
                    "type": "string"
                },
                "grpCode": {
                    "id": "/properties/contextData/properties/grpCode",
                    "type": "string"
                },
                "industry": {
                    "id": "/properties/contextData/properties/industry",
                    "properties": {
                        "sector": {
                            "id": "/properties/contextData/properties/industry/properties/sector",
                            "type": "string"
                        },
                        "subSector": {
                            "id": "/properties/contextData/properties/industry/properties/subSector",
                            "type": "string"
                        },
                        "superSector": {
                            "id": "/properties/contextData/properties/industry/properties/superSector",
                            "type": "string"
                        }
                    },
                    "type": "object"
                },
                "orgSize": {
                    "id": "/properties/contextData/properties/orgSize",
                    "type": "integer"
                },
                "sectionId": {
                    "id": "/properties/contextData/properties/sectionId",
                    "type": "string"
                }
            },
            "type": "object"
        },
        "data": {
            "id": "/properties/data",
            "items": {
                "id": "/properties/data/items",
                "properties": {},
                "type": "object"
            },
            "type": "array"
        },
        "metadata": {
            "id": "/properties/metadata",
            "properties": {
                "columns": {
                    "id": "/properties/metadata/properties/columns",
                    "items": {
                        "id": "/properties/metadata/properties/columns/items",
                        "properties": {
                            "code": {
                                "id": "/properties/metadata/properties/columns/items/properties/code",
                                "type": "string"
                            },
                            "dataType": {
                                "id": "/properties/metadata/properties/columns/items/properties/dataType",
                                "type": "string"
                            },
                            "displayLabel": {
                                "id": "/properties/metadata/properties/columns/items/properties/displayLabel",
                                "type": "string"
                            },
                            "questinType": {
                                "id": "/properties/metadata/properties/columns/items/properties/questinType",
                                "type": "string"
                            },
                            "validations": {
                                "id": "/properties/metadata/properties/columns/items/properties/validations",
                                "items": {
                                    "id": "/properties/metadata/properties/columns/items/properties/validations/items",
                                    "properties": {
                                        "errorGroup": {
                                            "id": "/properties/metadata/properties/columns/items/properties/validations/items/properties/errorGroup",
                                            "type": "string"
                                        },
                                        "errorType": {
                                            "id": "/properties/metadata/properties/columns/items/properties/validations/items/properties/errorType",
                                            "type": "string"
                                        },
                                        "expression": {
                                            "id": "/properties/metadata/properties/columns/items/properties/validations/items/properties/expression",
                                            "type": "string"
                                        },
                                        "message": {
                                            "id": "/properties/metadata/properties/columns/items/properties/validations/items/properties/message",
                                            "type": "string"
                                        },
                                        "validationType": {
                                            "id": "/properties/metadata/properties/columns/items/properties/validations/items/properties/validationType",
                                            "type": "string"
                                        }
                                    },
                                    "type": "object"
                                },
                                "type": "array"
                            }
                        },
                        "type": "object"
                    },
                    "type": "array"
                }
            },
            "type": "object"
        },
        "otherSectionsData": {
            "id": "/properties/otherSectionsData",
            "properties": {},
            "type": "object"
        }
    },
	"required": [
		"data",
		"metadata"
	],
    "type": "object"
}