{
    "entities": [
        {
            "data": [
                {
                    "STI_049": {
                        "STI_Emp_GRP_08": [
                            "7"
                        ],
                        "STI_Emp_GRP_09": [
                            "8"
                        ],
                        "STI_Emp_GRP_10": [
                            "9"
                        ],
                        "STI_Emp_GRP_11": [
                            "10"
                        ],
                        "STI_Emp_GRP_01": [
                            "1"
                        ],
                        "STI_Emp_GRP_12": [
                            "11"
                        ],
                        "STI_Emp_GRP_02": [
                            "2"
                        ],
                        "STI_Emp_GRP_03": [
                            "2"
                        ],
                        "STI_Emp_GRP_04": [
                            "3"
                        ],
                        "STI_Emp_GRP_05": [
                            "4"
                        ],
                        "STI_Emp_GRP_06": [
                            "5"
                        ],
                        "STI_Emp_GRP_07": [
                            "6"
                        ]
                    }
                }
            ],
            "contextData": {
                "uniqueIdColumnCode": "YOUR_EEID",
                "companyId": "5a1157354ad4b87ff889417e",
                "campaignId": "597b474bfe305700157895c0",
                "grpCode": "",
                "companyName": "KFC",
                "cpyCode": "",
                "industry": {
                    "superSector": "CG",
                    "subSector": "2670",
                    "sector": "101"
                },
                "sectionId": "COMPEN_000",
                "orgSize": null,
                "ctryCode": "PL"
            }
        }
    ]
}