timeStamp,elapsed,label,responseCode,threadName,success,bytes,grpThreads,allThreads,Latency,SampleCount,ErrorCount,Hostname,Connect
1520513789872,4596,FileUpload F1_PE-8157_Ignore,200,Thread Group_Prod1 1-1,false,6260,1,1,4594,1,1,INFPU07042,347
1520513794514,1050,FileUpload F1_PE-8110_ErrorCell,200,Thread Group_Prod1 1-1,true,1571,1,1,1049,1,0,INFPU07042,260
1520513795607,3860,FileUpload F2_PE-8110_ErrorCell_Ignore,422,Thread Group_Prod1 1-1,false,650879,1,1,1604,1,1,INFPU07042,0
1520513799506,2407,FileUpload F3_PE-8110_ErrorCell_Ignore,400,Thread Group_Prod1 1-1,false,385,1,1,2407,1,1,INFPU07042,263
1520513801929,1287,FileUpload F4_PE-5678_SequentialWithOtherValidations,200,Thread Group_Prod1 1-1,true,5471,1,1,1286,1,0,INFPU07042,252
1520513803261,256,NoFileUpload N1_PE-5678_LOOK_UP_CHECK1,200,Thread Group_Prod1 1-1,true,1077,1,1,256,1,0,INFPU07042,0
1520513803546,257,NoFileUpload N1_PE-5678_SequentialWithOtherValidations,200,Thread Group_Prod1 1-1,true,994,1,1,256,1,0,INFPU07042,0
1520513803842,255,NoFileUpload N2_PE-5678_SequentialWithOtherValidations,200,Thread Group_Prod1 1-1,true,964,1,1,255,1,0,INFPU07042,0
1520513804139,1874,"NoFileUpload_Null Validation_crossSectionChecks_LPALL_566 is """"",200,Thread Group_Prod1 1-1,true,6764,1,1,1872,1,0,INFPU07042,263
1520513806056,331,NoFileUpload_Null Validation_crossSectionChecks_LPALL_566 is null,200,Thread Group_Prod1 1-1,true,6760,1,1,329,1,0,INFPU07042,0
1520513806436,1884,"NoFileUpload_Null Validation_crossSectionChecks_LPALL_566 is ""null""",200,Thread Group_Prod1 1-1,true,6903,1,1,1882,1,0,INFPU07042,265
1520513808369,321,"NoFileUpload_Null Validation_crossSectionChecks_LPALL_566 is ""   """,200,Thread Group_Prod1 1-1,true,6767,1,1,319,1,0,INFPU07042,0
1520513808730,1046,NoFileUpload N3_PE-7172MDA,200,Thread Group_Prod1 1-1,true,664,1,1,1046,1,0,INFPU07042,260
1520513809832,658,FileUpload F5_PE7172_Fix,200,Thread Group_Prod1 1-1,false,4477,1,1,656,1,1,INFPU07042,0
1520513810521,266,NoFileUpload N4_PE-8032MDA,200,Thread Group_Prod1 1-1,true,664,1,1,266,1,0,INFPU07042,0
1520513810834,1527,NoFileUpload N5_PE-8070,200,Thread Group_Prod1 1-1,true,881,1,1,1527,1,0,INFPU07042,252
1520513812395,265,NoFileUpload N73_PE5668 T2_Temp,200,Thread Group_Prod1 1-1,true,609,1,1,265,1,0,INFPU07042,0
1520513812686,264,NoFileUpload N74_PE5668 T3_Temp,200,Thread Group_Prod1 1-1,true,753,1,1,263,1,0,INFPU07042,0
1520513812985,1280,NoFileUpload N75_PE5668 T4_Temp,200,Thread Group_Prod1 1-1,true,706,1,1,1280,1,0,INFPU07042,256
1520513814292,263,NoFileUpload N76_PE5668 T5_Temp,200,Thread Group_Prod1 1-1,true,720,1,1,263,1,0,INFPU07042,0
1520513814585,264,NoFileUpload N78_PE5668 T7_Temp,200,Thread Group_Prod1 1-1,true,705,1,1,264,1,0,INFPU07042,0
1520513814883,263,NoFileUpload N79_PE5668 T8_Temp,200,Thread Group_Prod1 1-1,true,607,1,1,262,1,0,INFPU07042,0
1520513815178,1826,FileUpload F6_PE-7257_US_CSV_Shuffle,500,Thread Group_Prod1 1-1,false,366,1,1,1824,1,1,INFPU07042,258
1520513817042,1450,FileUpload F7_PE-7257_US_Excel_Shuffle,200,Thread Group_Prod1 1-1,false,4201,1,1,1449,1,1,INFPU07042,0
1520513818533,1847,NoFileUpload N6_PE7978,200,Thread Group_Prod1 1-1,true,6632,1,1,1841,1,0,INFPU07042,259
1520513820415,262,NoFileUpload N7_PE7954,200,Thread Group_Prod1 1-1,true,727,1,1,262,1,0,INFPU07042,0
1520513820690,1290,NoFileUpload N77_PE5668 T6,200,Thread Group_Prod1 1-1,true,716,1,1,1290,1,0,INFPU07042,251
1520513821991,256,FileUpload F8_PE7999_Ignore since files are identical,422,Thread Group_Prod1 1-1,false,1282,1,1,255,1,1,INFPU07042,0
1520513822256,257,NoFileUpload N8_ PE7795,200,Thread Group_Prod1 1-1,true,717,1,1,256,1,0,INFPU07042,0
1520513822525,260,NoFileUpload N9_PE7046_AU_Comp2,200,Thread Group_Prod1 1-1,true,914,1,1,260,1,0,INFPU07042,0
1520513822802,778,NoFileUpload N10_PE7046_US_Comp1,200,Thread Group_Prod1 1-1,true,910,1,1,778,1,0,INFPU07042,255
1520513823617,264,NoFileUpload N11_PE7046_IN_Comp1,200,Thread Group_Prod1 1-1,true,910,1,1,264,1,0,INFPU07042,0
1520513823912,263,NoFileUpload N12_PE7046_ZA_Comp2,200,Thread Group_Prod1 1-1,true,914,1,1,263,1,0,INFPU07042,0
1520513824207,788,NoFileUpload N13_PE7773_NUM_EMP is 7_Fix,200,Thread Group_Prod1 1-1,false,1099,1,1,787,1,1,INFPU07042,0
1520513825049,1516,NoFileUpload N14_PE7773_NUM_EMP is 8.1_boundry is 8,200,Thread Group_Prod1 1-1,true,1100,1,1,1516,1,0,INFPU07042,250
1520513826600,284,NoFileUpload N15_PE7773_NUM_EMP is 9_boundry is 8,200,Thread Group_Prod1 1-1,true,1099,1,1,284,1,0,INFPU07042,0
1520513826915,609,FileUpload F9_PE5216_ImpactedbyComment,200,Thread Group_Prod1 1-1,true,1345,1,1,609,1,0,INFPU07042,0
1520513827546,793,NoFileUpload N16_PE7044_expression,200,Thread Group_Prod1 1-1,true,674,1,1,793,1,0,INFPU07042,263
1520513828340,529,NoFileUpload N17_PE7044_range,200,Thread Group_Prod1 1-1,true,917,1,1,529,1,0,INFPU07042,0
1520513828974,268,NoFileUpload N18_PE7044_rangeValidationRefTable,200,Thread Group_Prod1 1-1,true,912,1,1,268,1,0,INFPU07042,0
1520513829310,268,NoFileUpload N19_PE7044_rangeValidationRefTable_dimensions,200,Thread Group_Prod1 1-1,true,942,1,1,268,1,0,INFPU07042,0
1520513829613,2089,FileUpload F10_PE5691_1Record_Ignore,400,Thread Group_Prod1 1-1,false,327,1,1,2089,1,1,INFPU07042,260
1520513831732,2042,FileUpload F11_PE5691_1Record_Ignore,400,Thread Group_Prod1 1-1,false,327,1,1,2042,1,1,INFPU07042,253
1520513833811,1044,FileUpload F12_PE6027_Ref Table,200,Thread Group_Prod1 1-1,true,2193,1,1,1043,1,0,INFPU07042,254
1520513834927,530,FileUpload F13_PE6030,200,Thread Group_Prod1 1-1,true,3289,1,1,529,1,0,INFPU07042,0
1520513835524,262,NoFileUpload N20_PE7033,200,Thread Group_Prod1 1-1,true,910,1,1,262,1,0,INFPU07042,0
1520513835787,260,NoFileUpload N21_PE7314,200,Thread Group_Prod1 1-1,true,771,1,1,260,1,0,INFPU07042,0
1520513836092,2474,FileUpload F14_PE7071_1Record_Shuffle,200,Thread Group_Prod1 1-1,false,4188,1,1,2473,1,1,INFPU07042,246
1520513838606,2504,FileUpload F15_PE7071_1Record,200,Thread Group_Prod1 1-1,false,4749,1,1,2503,1,1,INFPU07042,262
1520513841160,2555,FileUpload F16_PE7071_1Record,200,Thread Group_Prod1 1-1,false,4188,1,1,2552,1,1,INFPU07042,254
1520513843753,2268,FileUpload F17_PE7071_1Record,400,Thread Group_Prod1 1-1,false,360,1,1,2268,1,1,INFPU07042,252
1520513846054,2328,FileUpload F18_PE7611,200,Thread Group_Prod1 1-1,true,1989,1,1,2327,1,0,INFPU07042,247
1520513848422,2527,FileUpload F19_PE7611,200,Thread Group_Prod1 1-1,false,1790,1,1,2527,1,1,INFPU07042,268
1520513850986,2416,FileUpload F20_PE7611,200,Thread Group_Prod1 1-1,true,1913,1,1,2415,1,0,INFPU07042,325
1520513853440,2442,FileUpload F21_PE7611,200,Thread Group_Prod1 1-1,true,1989,1,1,2441,1,0,INFPU07042,258
1520513855917,2481,FileUpload F22_PE7611,200,Thread Group_Prod1 1-1,false,2118,1,1,2480,1,1,INFPU07042,267
1520513858441,2571,FileUpload F23_PE7611,200,Thread Group_Prod1 1-1,false,1995,1,1,2570,1,1,INFPU07042,274
1520513861044,2484,FileUpload F24_PE7611,200,Thread Group_Prod1 1-1,false,1995,1,1,2484,1,1,INFPU07042,262
1520513863559,2379,FileUpload F25_PE7611,200,Thread Group_Prod1 1-1,false,1762,1,1,2378,1,1,INFPU07042,254
1520513865971,2371,FileUpload F26_PE7611,200,Thread Group_Prod1 1-1,false,1884,1,1,2371,1,1,INFPU07042,255
1520513868363,2501,FileUpload F27_PE7611,200,Thread Group_Prod1 1-1,true,2119,1,1,2500,1,0,INFPU07042,264
1520513870883,1049,FileUpload F28_6713CSV_SkipLastBlankRow,200,Thread Group_Prod1 1-1,true,1752,1,1,1049,1,0,INFPU07042,257
1520513871934,541,FileUpload F29_6713CSV_SkipInitialRow,200,Thread Group_Prod1 1-1,true,1461,1,1,541,1,0,INFPU07042,0
1520513872509,534,FileUpload F30_6713CSV_SkipMiddleBlankRows,200,Thread Group_Prod1 1-1,true,2055,1,1,533,1,0,INFPU07042,0
1520513873079,1038,FileUpload F31_6713Excel_SkipInitialRow,200,Thread Group_Prod1 1-1,true,1461,1,1,1037,1,0,INFPU07042,255
1520513874161,534,FileUpload F32_6713Excel_SkipLastBlankRow,200,Thread Group_Prod1 1-1,true,1752,1,1,534,1,0,INFPU07042,0
1520513874732,534,FileUpload F33_6713Excel_SkipMiddleRow,200,Thread Group_Prod1 1-1,true,2055,1,1,533,1,0,INFPU07042,0
1520513875298,785,NoFileUpload N22_PE7631_metaData,200,Thread Group_Prod1 1-1,true,609,1,1,784,1,0,INFPU07042,258
1520513876120,263,NoFileUpload N23_PE7631_metaData,200,Thread Group_Prod1 1-1,true,604,1,1,263,1,0,INFPU07042,0
1520513876414,263,NoFileUpload N24_PE7631_Autocorrect,200,Thread Group_Prod1 1-1,true,836,1,1,263,1,0,INFPU07042,0
1520513876715,262,NoFileUpload N25_PE7631,200,Thread Group_Prod1 1-1,true,830,1,1,262,1,0,INFPU07042,0
1520513877010,268,NoFileUpload N26_7045RawJson_NonNumerciData,200,Thread Group_Prod1 1-1,true,846,1,1,268,1,0,INFPU07042,0
1520513877335,762,NoFileUpload N27_7045RawJson_SkipBlankCols,200,Thread Group_Prod1 1-1,true,771,1,1,762,1,0,INFPU07042,253
1520513878126,259,NoFileUpload N28_7045RawJson_SkipNonNumericCols,200,Thread Group_Prod1 1-1,true,675,1,1,259,1,0,INFPU07042,0
1520513878421,257,NoFileUpload N29_7045RawJson_WithDimesion,200,Thread Group_Prod1 1-1,true,853,1,1,257,1,0,INFPU07042,0
1520513878728,257,NoFileUpload N30_7045RawJson_SingleNonBlankValue,200,Thread Group_Prod1 1-1,true,615,1,1,257,1,0,INFPU07042,0
1520513879013,258,NoFileUpload N31_7045RawJson_WithOtherValidation,200,Thread Group_Prod1 1-1,true,903,1,1,257,1,0,INFPU07042,0
1520513879310,531,FileUpload F34_PE7045_7045CSV_SimpleSequentialCheck,200,Thread Group_Prod1 1-1,true,2040,1,1,531,1,0,INFPU07042,0
1520513879881,1059,FileUpload F35_PE7045_7045Excel_SimpleSequentialCheck,200,Thread Group_Prod1 1-1,true,2028,1,1,1058,1,0,INFPU07042,259
1520513880968,534,FileUpload F36_PE7045_7045CSV_SkipBlankColumn,200,Thread Group_Prod1 1-1,false,1748,1,1,533,1,1,INFPU07042,0
1520513881514,550,FileUpload F37_PE7045_7045EXCEL_SkipBlankColumn,200,Thread Group_Prod1 1-1,true,2070,1,1,549,1,0,INFPU07042,0
1520513882102,1073,FileUpload F38_PE7045_7045CSV_SkipNonNumericData,200,Thread Group_Prod1 1-1,false,1640,1,1,1072,1,1,INFPU07042,263
1520513883225,561,FileUpload F39_PE7045_7045EXCEL_SkipNonNumericData,200,Thread Group_Prod1 1-1,true,2584,1,1,560,1,0,INFPU07042,0
1520513883820,270,NoFileUpload N32_PE7474_Testcase1,200,Thread Group_Prod1 1-1,true,900,1,1,269,1,0,INFPU07042,0
1520513884127,777,NoFileUpload N33_PE7474_Testcase2,200,Thread Group_Prod1 1-1,true,903,1,1,776,1,0,INFPU07042,256
1520513884936,261,NoFileUpload N34_PE7474_Testcase3,200,Thread Group_Prod1 1-1,true,815,1,1,261,1,0,INFPU07042,0
1520513885231,270,NoFileUpload N35_PE7474_Testcase4,200,Thread Group_Prod1 1-1,true,881,1,1,270,1,0,INFPU07042,0
1520513885537,275,NoFileUpload N36_PE7474_Testcase5,200,Thread Group_Prod1 1-1,true,905,1,1,274,1,0,INFPU07042,0
1520513885845,280,NoFileUpload N37_PE7474_Testcase6,200,Thread Group_Prod1 1-1,true,895,1,1,280,1,0,INFPU07042,0
1520513886139,5758,FileUpload F40_PE7474,200,Thread Group_Prod1 1-1,false,3939,1,1,5758,1,1,INFPU07042,251
1520513891923,1079,NoFileUpload N38_PE7689_RefTable,200,Thread Group_Prod1 1-1,true,942,1,1,1078,1,0,INFPU07042,268
1520513893031,815,NoFileUpload N39_PE7440_ISBLANK_ImpactedbyComment,200,Thread Group_Prod1 1-1,true,1070,1,1,815,1,0,INFPU07042,0
1520513893866,294,NoFileUpload N40_PE7440_ISNOTBLANK_LENGTH_ImpactedbyComment,200,Thread Group_Prod1 1-1,true,954,1,1,293,1,0,INFPU07042,0
1520513894200,1117,FileUpload F41_PE5679_EqualToWithAllBlank_POSCODE=2,200,Thread Group_Prod1 1-1,false,2838,1,1,1116,1,1,INFPU07042,259
1520513895347,605,FileUpload F42_PE5679_3 Null string and 1 Blank_POSCODE=2,200,Thread Group_Prod1 1-1,false,2669,1,1,604,1,1,INFPU07042,0
1520513895988,605,FileUpload F43_PE5679_2 Null String and 2 Blank_POSCODE=2,200,Thread Group_Prod1 1-1,true,2871,1,1,604,1,0,INFPU07042,0
1520513896624,1155,FileUpload F44_PE5679_1 Null String_1Data_2 Blank_POSCODE=2,200,Thread Group_Prod1 1-1,false,1746,1,1,1154,1,1,INFPU07042,298
1520513897817,600,FileUpload F45_PE5679_NoBlanksNoNullAllUnique_POSCODE=2,200,Thread Group_Prod1 1-1,false,3240,1,1,600,1,1,INFPU07042,0
1520513898448,593,FileUpload F46_PE5679_3samedata_1Blank_POSCODE=2,200,Thread Group_Prod1 1-1,false,2662,1,1,592,1,1,INFPU07042,0
1520513899074,1105,FileUpload F47_PE5679_POSCODEGreaterThan2,200,Thread Group_Prod1 1-1,false,2841,1,1,1104,1,1,INFPU07042,252
1520513900208,569,FileUpload F48_PE5679_POSCODEGreaterThanEqualTo2,200,Thread Group_Prod1 1-1,false,1747,1,1,568,1,1,INFPU07042,0
1520513900815,582,FileUpload F49_PE5679_LessThan,200,Thread Group_Prod1 1-1,false,2461,1,1,581,1,1,INFPU07042,0
1520513901430,1081,FileUpload F50_PE5679_LessThanEqualTo1,200,Thread Group_Prod1 1-1,false,2838,1,1,1080,1,1,INFPU07042,251
1520513902543,2967,FileUpload F52_PE7724_CSV_ref,200,Thread Group_Prod1 1-1,true,21361,1,1,2714,1,0,INFPU07042,0
1520513905549,3529,FileUpload F52_PE7724_Excel_ValidationMsg,200,Thread Group_Prod1 1-1,false,18275,1,1,3272,1,1,INFPU07042,255
1520513909116,2776,FileUpload F53_PE7056_uploadMultipleFile_TBC for strict or loose_Shuffle,200,Thread Group_Prod1 1-1,false,4196,1,1,2776,1,1,INFPU07042,250
1520513911928,758,NoFileUpload N41_PE7056_validateAggregates_Fix,200,Thread Group_Prod1 1-1,false,807,1,1,757,1,1,INFPU07042,250
1520513912718,255,NoFileUpload N42_7056_performDefaultActions_Correct as per new code,200,Thread Group_Prod1 1-1,true,679,1,1,255,1,0,INFPU07042,0
1520513913004,511,NoFileUpload N43_7056_crossSectionChecks,200,Thread Group_Prod1 1-1,true,1316,1,1,510,1,0,INFPU07042,0
1520513913542,256,NoFileUpload N44_PE7241_EmailValidation -withInvalidAndValidEmailIdInDimension,200,Thread Group_Prod1 1-1,true,858,1,1,256,1,0,INFPU07042,0
1520513913831,255,NoFileUpload N45_PE7241_EmailValidation-withAllInvalidEmailIdInDimension,200,Thread Group_Prod1 1-1,true,884,1,1,255,1,0,INFPU07042,0
1520513914121,860,NoFileUpload N46_PE7241_EmailValidation -withNullStringAndBlankEmailIdInDimension,200,Thread Group_Prod1 1-1,true,853,1,1,860,1,0,INFPU07042,346
1520513915017,260,NoFileUpload N47_PE7241_EmailValidation_withAllBlankEmailIdInDimension,200,Thread Group_Prod1 1-1,true,832,1,1,260,1,0,INFPU07042,0
1520513915315,261,NoFileUpload N48_PE7241_EmailValidation_withAllEmailIdAsNullStringInDimension,200,Thread Group_Prod1 1-1,true,848,1,1,260,1,0,INFPU07042,0
1520513915605,262,NoFileUpload N49_PE7241_EmailValidation_withAllValidEmailIdInDimension,200,Thread Group_Prod1 1-1,true,876,1,1,262,1,0,INFPU07042,0
1520513915900,259,NoFileUpload N50_PE7241_PhoneValidation_withAllBlankPhoneNumberInDimension,200,Thread Group_Prod1 1-1,true,795,1,1,259,1,0,INFPU07042,0
1520513916193,761,NoFileUpload N51_PE7241_PhoneValidation_withAllInvalidPhoneNumberInDimension,200,Thread Group_Prod1 1-1,true,897,1,1,761,1,0,INFPU07042,252
1520513916996,258,NoFileUpload N52_PE7241_PhoneValidation_withAllNullStringAndBlankPhoneNumberInDimension,200,Thread Group_Prod1 1-1,true,813,1,1,258,1,0,INFPU07042,0
1520513917294,256,NoFileUpload N53_PE7241_PhoneValidation_withAllNullStringPhoneNumberInDimension,200,Thread Group_Prod1 1-1,true,836,1,1,256,1,0,INFPU07042,0
1520513917593,258,NoFileUpload N54_PE7241_PhoneValidation_withAllValidPhoneNumberInDimension,200,Thread Group_Prod1 1-1,true,879,1,1,257,1,0,INFPU07042,0
1520513917884,257,NoFileUpload N55_PE7241_PhoneValidation_withValidAndInvalidPhoneNumberInDimension,200,Thread Group_Prod1 1-1,true,872,1,1,256,1,0,INFPU07042,0
1520513918171,257,NoFileUpload N56_PE7241_RequiredValidation__withAllNullStringInDimension,200,Thread Group_Prod1 1-1,true,872,1,1,257,1,0,INFPU07042,0
1520513918453,795,NoFileUpload N57_PE7241_RequiredValidation__withAllValidValuesInDimension,200,Thread Group_Prod1 1-1,true,858,1,1,795,1,0,INFPU07042,264
1520513919295,269,NoFileUpload N58_PE7241_RequiredValidation_withAllblankValuesInDimension ,200,Thread Group_Prod1 1-1,true,869,1,1,268,1,0,INFPU07042,0
1520513919605,268,"NoFileUpload N59_PE7241_RequiredValidation_WithNullString,BlankAndValuesInDimension",200,Thread Group_Prod1 1-1,true,884,1,1,267,1,0,INFPU07042,0
1520513919919,269,NoFileUpload N60_PE7241_RequiredValidation_WithNullStringlAndBlankInDimension,200,Thread Group_Prod1 1-1,true,875,1,1,269,1,0,INFPU07042,0
1520513920223,268,NoFileUpload N61_PE7241_RequiredValidation_WithValidAndInvalidValue,200,Thread Group_Prod1 1-1,true,879,1,1,268,1,0,INFPU07042,0
1520513920531,805,NoFileUpload N62_PE7241_CheckBoxes_UploadMultipleFile,200,Thread Group_Prod1 1-1,true,805,1,1,805,1,0,INFPU07042,268
1520513921371,275,NoFileUpload N63_PE7241_Dimension_CrossSection,200,Thread Group_Prod1 1-1,true,870,1,1,275,1,0,INFPU07042,0
1520513921683,271,NoFileUpload N64_PE7241_MDA_Dimension,200,Thread Group_Prod1 1-1,true,857,1,1,271,1,0,INFPU07042,0
1520513921987,2361,FileUpload F54_PE-7257_AllValidDateAndDoubleValue(Positive scenario),200,Thread Group_Prod1 1-1,true,19769,1,1,2091,1,0,INFPU07042,0
1520513924348,2749,FileUpload F55_PE-7257_AllValidAndInvalidDateAndDoubleValue(Negative scenario),200,Thread Group_Prod1 1-1,true,18559,1,1,2494,1,0,INFPU07042,255
1520513927098,1021,NoFileUpload N65_PE7506_crosssection_with multiple combination for LPALL_399A,200,Thread Group_Prod1 1-1,true,1319,1,1,1021,1,0,INFPU07042,253
1520513928149,263,NoFileUpload N66_PE7506_crosssection_with 3 Dimensions for LPALL_399A,200,Thread Group_Prod1 1-1,true,1264,1,1,263,1,0,INFPU07042,0
1520513928444,267,"NoFileUpload N67_PE7506_crosssection_13LATAM_01"": ""Y""",200,Thread Group_Prod1 1-1,true,1235,1,1,266,1,0,INFPU07042,0
1520513928946,265,"NoFileUpload N68_PE7506_crosssection_ EE_group_13LATAM_01"": ""N""",200,Thread Group_Prod1 1-1,true,1060,1,1,265,1,0,INFPU07042,0
1520513929234,1020,NoFileUpload N69_PE7506_crosssection_when  EE_group_13LATAM is not present,200,Thread Group_Prod1 1-1,true,1032,1,1,1020,1,0,INFPU07042,255
1520513930292,265,NoFileUpload N70_PE7506_crosssection_with Dimension for LPALL_399A,200,Thread Group_Prod1 1-1,true,1316,1,1,264,1,0,INFPU07042,0
1520513930595,267,NoFileUpload N71_PE7506_crosssection_with Dimension for LPALL_399A 1 as Y others as N,200,Thread Group_Prod1 1-1,true,1264,1,1,267,1,0,INFPU07042,0
1520513930895,537,FileUpload F56_PE5415_MultiSheetSuccess,200,Thread Group_Prod1 1-1,true,3621,1,1,536,1,0,INFPU07042,0
1520513931462,1068,FileUpload F57_PE5415_MultiSheetBadRequest_Ignore,400,Thread Group_Prod1 1-1,false,327,1,1,1068,1,1,INFPU07042,265
1520513932530,563,FileUpload F58_PE5415_MultiSheetCorrectRequest,200,Thread Group_Prod1 1-1,true,3494,1,1,562,1,0,INFPU07042,0
1520513933122,538,FileUpload F59_PE5415_Step1SingleSheetBadReq_Ignore,422,Thread Group_Prod1 1-1,false,1282,1,1,537,1,1,INFPU07042,0
1520513933690,1083,FileUpload F60_PE5415_Step1SingleSheetCorrectReq,200,Thread Group_Prod1 1-1,true,4665,1,1,1076,1,0,INFPU07042,262
1520513934801,282,FileUpload F61_PE5415_Step3MappingCompanyJson,200,Thread Group_Prod1 1-1,true,1611,1,1,281,1,0,INFPU07042,0
1520513935117,543,FileUpload F62_PE5415_Step3MappingCompanyExcel,200,Thread Group_Prod1 1-1,true,1625,1,1,543,1,0,INFPU07042,0
1520513935684,1034,FileUpload F63_PE5415_Step3MappingColumnExcel,200,Thread Group_Prod1 1-1,true,4466,1,1,1033,1,0,INFPU07042,253
1520513936760,268,FileUpload F64_PE5415_Step3MappingColumnJson,200,Thread Group_Prod1 1-1,true,2585,1,1,267,1,0,INFPU07042,0
1520513937043,285,FileUpload F65_PE5415_Step3MappingColumnJsonWithoutCountry,200,Thread Group_Prod1 1-1,true,2131,1,1,285,1,0,INFPU07042,0
1520513937367,268,FileUpload F66_PE5415_Step3MappingColumnJsonWithCountry,200,Thread Group_Prod1 1-1,true,1611,1,1,268,1,0,INFPU07042,0
1520513937673,3867,FileUpload F67_PE8315_Fix,200,Thread Group_Prod1 1-1,false,38517,1,1,3606,1,1,INFPU07042,0
1520513941569,1390,FileUpload F68_PE8037_Fix,200,Thread Group_Prod1 1-1,false,2156,1,1,1389,1,1,INFPU07042,254
1520513942991,261,NoFileUpload N72_ PE5668 T1,200,Thread Group_Prod1 1-1,true,702,1,1,261,1,0,INFPU07042,0
1520513943290,257,NoFileUpload N80_PE7989_Req_NonNumericData_withAllwrongcolumn_MDA,200,Thread Group_Prod1 1-1,true,678,1,1,256,1,0,INFPU07042,0
1520513943568,755,NoFileUpload N81_PE7989_Req_NonNumericData_withAllrightcolumn_MDA,200,Thread Group_Prod1 1-1,true,846,1,1,755,1,0,INFPU07042,250
1520513944368,253,NoFileUpload N82_PE7989_Req_NonNumericData_with1wrongcolumn_MDA,200,Thread Group_Prod1 1-1,true,849,1,1,253,1,0,INFPU07042,0
1520513944636,259,NoFileUpload N83_PE7989_uploadMultipleFile,200,Thread Group_Prod1 1-1,true,835,1,1,259,1,0,INFPU07042,0
1520513944924,256,NoFileUpload N84_400 and 500 Error_crossSectionChecks,200,Thread Group_Prod1 1-1,true,619,1,1,255,1,0,INFPU07042,0
1520513945201,258,NoFileUpload N85_400 and 500 Error_crossSectionChecks,200,Thread Group_Prod1 1-1,true,648,1,1,258,1,0,INFPU07042,0
1520513945487,255,NoFileUpload N86_400 and 500 Error_crossSectionChecks,200,Thread Group_Prod1 1-1,true,647,1,1,255,1,0,INFPU07042,0
1520513945787,785,NoFileUpload N87_400 and 500 Error_crossSectionChecks,200,Thread Group_Prod1 1-1,true,501,1,1,785,1,0,INFPU07042,261
1520513946598,266,NoFileUpload N88_400 and 500 Error_crossSectionChecks,200,Thread Group_Prod1 1-1,true,619,1,1,266,1,0,INFPU07042,0
1520513946876,267,NoFileUpload N89_PE8186_to Add assertion,200,Thread Group_Prod1 1-1,true,944,1,1,266,1,0,INFPU07042,0
1520513947178,265,NoFileUpload N90_PE8032_SyntaxError1_Fix,200,Thread Group_Prod1 1-1,false,674,1,1,265,1,1,INFPU07042,0
1520513947473,267,NoFileUpload N91_PE8032_SyntaxError2_Fix,200,Thread Group_Prod1 1-1,false,674,1,1,267,1,1,INFPU07042,0
1520513947782,778,NoFileUpload N92_PE8032_InvalidColumn,200,Thread Group_Prod1 1-1,true,758,1,1,778,1,0,INFPU07042,258
1520513948617,264,NoFileUpload N93_PE7771_Exp,200,Thread Group_Prod1 1-1,true,674,1,1,263,1,0,INFPU07042,0
1520513948942,267,NoFileUpload N94_PE7771_Range,200,Thread Group_Prod1 1-1,true,917,1,1,267,1,0,INFPU07042,0
1520513949226,1102,NoFileUpload N94_PE7771_Added Scenario,200,Thread Group_Prod1 1-1,true,6106,1,1,1099,1,0,INFPU07042,0
1520513950363,1010,NoFileUpload N95_PE8269 and 8397_CSC_MDA_ClearValue_Fix,200,Thread Group_Prod1 1-1,false,582,1,1,1010,1,1,INFPU07042,252
1520513951401,262,NoFileUpload N96_PE8269 and 8397_CSC_OtherThanClearValue,200,Thread Group_Prod1 1-1,true,792,1,1,261,1,0,INFPU07042,0
1520513951689,258,NoFileUpload N97_PE8269 and 8397_UMF_NonMDA,200,Thread Group_Prod1 1-1,true,833,1,1,257,1,0,INFPU07042,0
1520513951971,257,NoFileUpload N98_PE8269 and 8397_PDA_MDA_ClearValue_Fix,200,Thread Group_Prod1 1-1,false,576,1,1,257,1,1,INFPU07042,0
1520513952256,261,NoFileUpload N99_PE8269 and 8397_PDA_OtherThanClearValue,200,Thread Group_Prod1 1-1,true,789,1,1,261,1,0,INFPU07042,0
1520513952551,8726,FileUpload F69_PE8584_Null Issue ,200,Thread Group_Prod1 1-1,false,13986,1,1,8720,1,1,INFPU07042,260
1520513961315,1450,FileUpload F70_PE8584,200,Thread Group_Prod1 1-1,false,7902,1,1,1450,1,1,INFPU07042,254
1520513962801,622,FileUpload F71_PE8584,200,Thread Group_Prod1 1-1,false,1752,1,1,621,1,1,INFPU07042,0
1520513963447,1129,FileUpload F72_PE8584,200,Thread Group_Prod1 1-1,false,1752,1,1,1128,1,1,INFPU07042,253
1520513964597,8506,FileUpload F73_PE8584,200,Thread Group_Prod1 1-1,false,13847,1,1,8505,1,1,INFPU07042,0
1520513973147,13256,FileUpload F74_PE8584,200,Thread Group_Prod1 1-1,false,13851,1,1,13253,1,1,INFPU07042,249
1520513986453,3447,FileUpload F75_PE8584,200,Thread Group_Prod1 1-1,false,17412,1,1,3195,1,1,INFPU07042,336
1520513989951,8101,FileUpload F76_PE8584,200,Thread Group_Prod1 1-1,false,171990,1,1,7063,1,1,INFPU07042,259
1520513998101,5247,FileUpload F77_PE8584,200,Thread Group_Prod1 1-1,false,55018,1,1,4700,1,1,INFPU07042,272
1520514003387,1410,FileUpload F78_PE8584,200,Thread Group_Prod1 1-1,false,5978,1,1,1408,1,1,INFPU07042,253
1520514004840,257,NoFileUpload N100_PE8916,200,Thread Group_Prod1 1-1,false,860,1,1,257,1,1,INFPU07042,0
1520514005120,265,NoFileUpload N101_POSCODE,200,Thread Group_Prod1 1-1,true,661,1,1,265,1,0,INFPU07042,0
1520514005409,4705,FileUpload F79_PE8951_P1,200,Thread Group_Prod1 1-1,true,34584,1,1,4434,1,0,INFPU07042,262
1520514010114,4588,FileUpload F80_PE8951_P2,200,Thread Group_Prod1 1-1,true,30836,1,1,4326,1,0,INFPU07042,257
1520514014703,4437,FileUpload F81_PE8951_P3,200,Thread Group_Prod1 1-1,true,30843,1,1,4179,1,0,INFPU07042,262
1520514019141,4224,FileUpload F82_PE8951_P4,200,Thread Group_Prod1 1-1,true,30844,1,1,3954,1,0,INFPU07042,267
1520514023366,3668,FileUpload F83_PE8951_N1,400,Thread Group_Prod1 1-1,true,389,1,1,3668,1,0,INFPU07042,274
1520514027035,5311,FileUpload F84_PE8951_N2,400,Thread Group_Prod1 1-1,true,389,1,1,5310,1,0,INFPU07042,293
1520514032346,3605,FileUpload F85_PE8951_N3,400,Thread Group_Prod1 1-1,true,388,1,1,3605,1,0,INFPU07042,257
1520514035952,3714,FileUpload F86_PE8951_N4,400,Thread Group_Prod1 1-1,true,388,1,1,3714,1,0,INFPU07042,264
1520514039668,3593,FileUpload F88_8976,200,Thread Group_Prod1 1-1,true,1564,1,1,3593,1,0,INFPU07042,257
1520514043262,3499,FileUpload F87_8976,422,Thread Group_Prod1 1-1,true,1187,1,1,3499,1,0,INFPU07042,267
1520593138813,3313,FileUpload F79_PE8951_P1,Non HTTP response code: java.io.FileNotFoundException,Thread Group_Prod1 1-1,false,2733,1,1,0,1,1,INFPU07042,458
1520593142800,5140,FileUpload F80_PE8951_P2,Non HTTP response code: java.io.FileNotFoundException,Thread Group_Prod1 1-1,false,2733,1,1,0,1,1,INFPU07042,273
1520593147990,3285,FileUpload F81_PE8951_P3,Non HTTP response code: java.net.SocketException,Thread Group_Prod1 1-1,false,2811,1,1,0,1,1,INFPU07042,274
