{
    "entities": [
        {
            "data": [
                {
                    "YOUR_TITLE": "aaa",
                    "YOUR_EEID": "10000",
                    "salary": "80",
                    "age": "5",
                    "dropdown": "Test1",
                    "validationErrors": [
                        {
                            "dependentColumns": [
                                "YOUR_EEID",
                                "salary",
                                "age",
                                "dropdown"
                            ],
                            "expression": "",
                            "errorGroup": "Personal",
                            "errorType": "ERROR",
                            "validationType": "sequentialCheck",
                            "message": "",
                            "field": "salary",
                            "messageKey": "mosaic-error-message.sequential_check",
                            "messageParams": {
                                "column": "salary",
                                "prevColumn": "YOUR_EEID"
                            }
                        },
                        {
                            "dependentColumns": [
                                "YOUR_EEID",
                                "salary",
                                "age",
                                "dropdown"
                            ],
                            "expression": "",
                            "errorGroup": "Personal",
                            "errorType": "ERROR",
                            "validationType": "sequentialCheck",
                            "message": "",
                            "field": "age",
                            "messageKey": "mosaic-error-message.sequential_check",
                            "messageParams": {
                                "column": "age",
                                "prevColumn": "salary"
                            }
                        },
                        {
                            "minAlert": "17000",
                            "maxAlert": "21000",
                            "dependentColumns": [],
                            "minError": "15000",
                            "validationType": "range",
                            "maxError": "24500",
                            "_id": "59df5c44527b5be1ac230224",
                            "category": "input_data",
                            "field": "YOUR_EEID",
                            "errorType": "ERROR",
                            "messageKey": "mosaic-error-message.min_value_error"
                        },
                        {
                            "expression": "DECODE(LENGTH(this.YOUR_EEID) > 0,\"true\",\"false\");",
                            "errorGroup": "Personal",
                            "errorType": "ERROR",
                            "validationType": "expression",
                            "message": "Length of Department",
                            "field": "YOUR_EEID"
                        },
                        {
                            "expression": "DECODE(LENGTH(this.YOUR_TITLE) > 0,\"true\",\"false\");",
                            "errorGroup": "Personal",
                            "errorType": "ERROR",
                            "validationType": "expression",
                            "message": "Length of Department",
                            "field": "YOUR_TITLE"
                        }
                    ]
                },
                {
                    "YOUR_TITLE": "bbb",
                    "YOUR_EEID": "15000",
                    "salary": "40",
                    "age": "20",
                    "dropdown": "Test2",
                    "validationErrors": [
                        {
                            "dependentColumns": [
                                "YOUR_EEID",
                                "salary",
                                "age",
                                "dropdown"
                            ],
                            "expression": "",
                            "errorGroup": "Personal",
                            "errorType": "ERROR",
                            "validationType": "sequentialCheck",
                            "message": "",
                            "field": "salary",
                            "messageKey": "mosaic-error-message.sequential_check",
                            "messageParams": {
                                "column": "salary",
                                "prevColumn": "YOUR_EEID"
                            }
                        },
                        {
                            "dependentColumns": [
                                "YOUR_EEID",
                                "salary",
                                "age",
                                "dropdown"
                            ],
                            "expression": "",
                            "errorGroup": "Personal",
                            "errorType": "ERROR",
                            "validationType": "sequentialCheck",
                            "message": "",
                            "field": "age",
                            "messageKey": "mosaic-error-message.sequential_check",
                            "messageParams": {
                                "column": "age",
                                "prevColumn": "salary"
                            }
                        },
                        {
                            "minAlert": "17000",
                            "maxAlert": "21000",
                            "dependentColumns": [],
                            "minError": "15000",
                            "validationType": "range",
                            "maxError": "24500",
                            "_id": "59df5c44527b5be1ac230224",
                            "category": "input_data",
                            "field": "YOUR_EEID",
                            "errorType": "ALERT",
                            "messageKey": "mosaic-error-message.min_value_alert"
                        },
                        {
                            "expression": "DECODE(LENGTH(this.YOUR_EEID) > 0,\"true\",\"false\");",
                            "errorGroup": "Personal",
                            "errorType": "ERROR",
                            "validationType": "expression",
                            "message": "Length of Department",
                            "field": "YOUR_EEID"
                        },
                        {
                            "expression": "DECODE(LENGTH(this.YOUR_TITLE) > 0,\"true\",\"false\");",
                            "errorGroup": "Personal",
                            "errorType": "ERROR",
                            "validationType": "expression",
                            "message": "Length of Department",
                            "field": "YOUR_TITLE"
                        }
                    ]
                },
                {
                    "YOUR_TITLE": "ccc",
                    "YOUR_EEID": "20000",
                    "salary": "50",
                    "age": "70",
                    "dropdown": "Test3",
                    "validationErrors": [
                        {
                            "dependentColumns": [
                                "YOUR_EEID",
                                "salary",
                                "age",
                                "dropdown"
                            ],
                            "expression": "",
                            "errorGroup": "Personal",
                            "errorType": "ERROR",
                            "validationType": "sequentialCheck",
                            "message": "",
                            "field": "salary",
                            "messageKey": "mosaic-error-message.sequential_check",
                            "messageParams": {
                                "column": "salary",
                                "prevColumn": "YOUR_EEID"
                            }
                        },
                        {
                            "expression": "DECODE(LENGTH(this.YOUR_EEID) > 0,\"true\",\"false\");",
                            "errorGroup": "Personal",
                            "errorType": "ERROR",
                            "validationType": "expression",
                            "message": "Length of Department",
                            "field": "YOUR_EEID"
                        },
                        {
                            "expression": "DECODE(LENGTH(this.YOUR_TITLE) > 0,\"true\",\"false\");",
                            "errorGroup": "Personal",
                            "errorType": "ERROR",
                            "validationType": "expression",
                            "message": "Length of Department",
                            "field": "YOUR_TITLE"
                        }
                    ]
                },
                {
                    "YOUR_TITLE": "ddd",
                    "YOUR_EEID": "21500",
                    "salary": "60",
                    "age": "50",
                    "dropdown": "Test4",
                    "validationErrors": [
                        {
                            "dependentColumns": [
                                "YOUR_EEID",
                                "salary",
                                "age",
                                "dropdown"
                            ],
                            "expression": "",
                            "errorGroup": "Personal",
                            "errorType": "ERROR",
                            "validationType": "sequentialCheck",
                            "message": "",
                            "field": "salary",
                            "messageKey": "mosaic-error-message.sequential_check",
                            "messageParams": {
                                "column": "salary",
                                "prevColumn": "YOUR_EEID"
                            }
                        },
                        {
                            "dependentColumns": [
                                "YOUR_EEID",
                                "salary",
                                "age",
                                "dropdown"
                            ],
                            "expression": "",
                            "errorGroup": "Personal",
                            "errorType": "ERROR",
                            "validationType": "sequentialCheck",
                            "message": "",
                            "field": "age",
                            "messageKey": "mosaic-error-message.sequential_check",
                            "messageParams": {
                                "column": "age",
                                "prevColumn": "salary"
                            }
                        },
                        {
                            "minAlert": "17000",
                            "maxAlert": "21000",
                            "dependentColumns": [],
                            "minError": "15000",
                            "validationType": "range",
                            "maxError": "24500",
                            "_id": "59df5c44527b5be1ac230224",
                            "category": "input_data",
                            "field": "YOUR_EEID",
                            "errorType": "ALERT",
                            "messageKey": "mosaic-error-message.max_value_alert"
                        },
                        {
                            "expression": "DECODE(LENGTH(this.YOUR_EEID) > 0,\"true\",\"false\");",
                            "errorGroup": "Personal",
                            "errorType": "ERROR",
                            "validationType": "expression",
                            "message": "Length of Department",
                            "field": "YOUR_EEID"
                        },
                        {
                            "expression": "DECODE(LENGTH(this.YOUR_TITLE) > 0,\"true\",\"false\");",
                            "errorGroup": "Personal",
                            "errorType": "ERROR",
                            "validationType": "expression",
                            "message": "Length of Department",
                            "field": "YOUR_TITLE"
                        }
                    ]
                }
            ],
            "contextData": {
                "uniqueIdColumnCode": "ID",
                "entityNameColumnCode": "city1",
                "campaignId": "11111",
                "grpCode": "3333",
                "companyName": "Company1",
                "cpyCode": "4444",
                "industry": {
                    "superSector": "CG",
                    "subSector": "101",
                    "sector": "100"
                },
                "sectionId": "22222",
                "orgSize": 123,
                "ctryCode": "US"
            }
        }
    ]
}