{  
   "entities":[  
      {  
         "otherSectionsData":{  

         },
         "contextData":{  
            "campaignId":"5a0180a406ff1e00156af3b3",
            "companyId":"5a3d40da0e4883001701c333",
            "orgSize":null,
            "companyName":"MEX Test",
            "ctryCode":"MX",
            "sectionId":"EMP_DATA",
            "grpCode":"",
            "cpyCode":"",
            "uniqueIdColumnCode":"YOUR_EEID",
            "industry":{  
               "superSector":"CG",
               "sector":"101"
            }
         },
         "sectionStructure":{  
            "columns":[  
               {  
                  "code":"EXP_GRP_CODE",
                  "dataType":"string",
                  "questionType":"text",
                  "validations":[  
                     {  
                        "_id":"5a27ddcf34fee900156c2391",
                        "parameter":"",
                        "expression":"contextData.grpCode;",
                        "errorType":"AUTOCORRECT",
                        "validationType":"expression",
                        "category":"input_data",
                        "dependentColumns":[  

                        ]
                     }
                  ]
               },
               {  
                  "code":"EXP_CPY_CODE",
                  "dataType":"string",
                  "questionType":"text",
                  "validations":[  
                     {  
                        "_id":"5a27ddf134fee900156c2393",
                        "parameter":"",
                        "expression":"contextData.cpyCode;",
                        "errorType":"AUTOCORRECT",
                        "validationType":"expression",
                        "category":"input_data",
                        "dependentColumns":[  

                        ]
                     }
                  ]
               },
               {  
                  "code":"EXP_CTRY_CODE",
                  "dataType":"string",
                  "questionType":"text",
                  "validations":[  
                     {  
                        "_id":"5a27de0b34fee900156c2395",
                        "parameter":"",
                        "expression":"contextData.ctryCode;",
                        "errorType":"AUTOCORRECT",
                        "validationType":"expression",
                        "category":"input_data",
                        "dependentColumns":[  

                        ]
                     }
                  ]
               },
               {  
                  "code":"EXP_SUPER_SECTOR",
                  "dataType":"string",
                  "questionType":"text",
                  "validations":[  
                     {  
                        "_id":"5a27de2434fee900156c2397",
                        "parameter":"",
                        "expression":"contextData.industry.superSector;",
                        "errorType":"AUTOCORRECT",
                        "validationType":"expression",
                        "category":"input_data",
                        "dependentColumns":[  

                        ]
                     }
                  ]
               },
               {  
                  "code":"EXP_SECTOR",
                  "dataType":"int",
                  "questionType":"integer",
                  "validations":[  
                     {  
                        "_id":"5a27de8834fee900156c239b",
                        "parameter":"",
                        "expression":"contextData.industry.sector;",
                        "errorType":"AUTOCORRECT",
                        "validationType":"expression",
                        "category":"input_data",
                        "dependentColumns":[  

                        ]
                     }
                  ]
               },
               {  
                  "code":"EXP_SUB_SECTOR",
                  "dataType":"int",
                  "questionType":"integer",
                  "validations":[  
                     {  
                        "_id":"5a27de3c34fee900156c2399",
                        "parameter":"",
                        "expression":"contextData.industry.subSector;",
                        "errorType":"AUTOCORRECT",
                        "validationType":"expression",
                        "category":"input_data",
                        "dependentColumns":[  

                        ]
                     }
                  ]
               },
               {  
                  "code":"EXP_FAMILY",
                  "dataType":"string",
                  "questionType":"text",
                  "validations":[  
                     {  
                        "validationType":"expression",
                        "errorType":"AUTOCORRECT",
                        "expression":"SUBSTR(this.POS_CODE,1,3);",
                        "parameter":"",
                        "_id":"5a27df4334fee900156c239d",
                        "category":"input_data",
                        "dependentColumns":[  

                        ]
                     }
                  ]
               },
               {  
                  "code":"CAREER_STREAM",
                  "dataType":"string",
                  "questionType":"text",
                  "validations":[  
                     {  
                        "parameter":"",
                        "expression":"SUBSTR(this.POS_CODE,12,1);",
                        "errorType":"AUTOCORRECT",
                        "validationType":"expression",
                        "_id":"5a3cec8f33d6d60016aab396",
                        "category":"input_data",
                        "dependentColumns":[  

                        ]
                     }
                  ]
               },
               {  
                  "code":"CAREER_LEVEL",
                  "dataType":"int",
                  "questionType":"integer",
                  "validations":[  
                     {  
                        "parameter":"",
                        "expression":"SUBSTR(this.POS_CODE,13,2);",
                        "errorType":"AUTOCORRECT",
                        "validationType":"expression",
                        "_id":"5a268b942565f500154a5964",
                        "category":"input_data",
                        "dependentColumns":[  

                        ]
                     }
                  ]
               },
               {  
                  "code":"EXP_DEF_NUM_MONTHS",
                  "dataType":"double",
                  "questionType":"double",
                  "validations":[  
                     {  
                        "parameter":"",
                        "expression":"NVL(LOOK_UP_CHECK(\"OPS_DEF_NUM_MONTHS\",\"CTX_CTRY_CODE = contextData.ctryCode\",\"DEF_NUM_MONTHS\"),12);",
                        "errorType":"AUTOCORRECT",
                        "validationType":"expression",
                        "_id":"5a28000e34fee900156c23fb",
                        "category":"input_data",
                        "dependentColumns":[  

                        ]
                     }
                  ]
               },
               {  
                  "code":"EXP_CURR_CONV",
                  "dataType":"double",
                  "questionType":"double",
                  "validations":[  
                     {  
                        "_id":"5a27e06634fee900156c23a7",
                        "validationType":"expression",
                        "errorType":"AUTOCORRECT",
                        "expression":"NVL(LOOK_UP_CHECK(\"CURRENCY\",\"CTX_CTRY_CODE = this.EXP_CTRY_CODE\",\"EXCHANGE_RATE\"),1);",
                        "parameter":"",
                        "category":"input_data",
                        "dependentColumns":[  

                        ]
                     }
                  ]
               },
               {  
                  "code":"EXP_SALINFLATION",
                  "dataType":"double",
                  "questionType":"double",
                  "validations":[  
                     {  
                        "_id":"5a27e05434fee900156c23a6",
                        "validationType":"expression",
                        "errorType":"AUTOCORRECT",
                        "expression":"NVL(LOOK_UP_CHECK(\"COUNTRY\",\"CTX_CTRY_CODE = this.EXP_CTRY_CODE\",\"SALARY_INFLATION\"),0);",
                        "parameter":"",
                        "category":"input_data",
                        "dependentColumns":[  

                        ]
                     }
                  ]
               },
               {  
                  "code":"EXP_AGE",
                  "dataType":"int",
                  "questionType":"integer",
                  "validations":[  
                     {  
                        "_id":"5a27e00e34fee900156c23a5",
                        "parameter":"",
                        "expression":"YEAR(NOW()) - this.EMP_037;",
                        "errorType":"AUTOCORRECT",
                        "validationType":"expression",
                        "category":"input_data",
                        "dependentColumns":[  

                        ]
                     }
                  ]
               },
               {  
                  "code":"EXP_ROLE_CH",
                  "dataType":"string",
                  "questionType":"text",
                  "validations":[  
                     {  
                        "_id":"5a27dfbe34fee900156c23a1",
                        "parameter":"",
                        "expression":"ISNOTBLANK(this.EMP_039) AND YEAR(NOW()) - this.EMP_039 <= 1;",
                        "errorType":"AUTOCORRECT",
                        "validationType":"expression",
                        "category":"input_data",
                        "dependentColumns":[  

                        ]
                     }
                  ]
               },
               {  
                  "code":"EXP_COMP1",
                  "dataType":"double",
                  "questionType":"double",
                  "validations":[  
                     {  
                        "parameter":"",
                        "expression":"IF(contextData.ctryCode == \"ZA\")  {r = this.EXP_ANN_PACK;} else {IF(ISNOTBLANK(this.EMP_122) AND ISNOTBLANK(this.EMP_129)) {IF(this.EMP_122 == \"H\") {r = this.EMP_129*2080;} else {IF(this.EMP_122 == \"M\") {r = this.EMP_129*this.EXP_DEF_NUM_MONTHS;} else {r = this.EMP_129;}}} else\n{IF(ISNOTBLANK(this.EMP_125) and ISNOTBLANK(this.EMP_128)) {r = this.EMP_125*this.EMP_128;} else\n{IF(ISNOTBLANK(this.EMP_125) and ISBLANK(this.EMP_128)) {r = this.EMP_125 * this.EXP_DEF_NUM_MONTHS;} else\n{IF(ISNOTBLANK(this.EMP_129)) {r = this.EMP_129;} else {IF(ISNOTBLANK(this.EMP_126) and ISNOTBLANK(this.EMP_128)) {r = (this.EMP_126*this.EMP_128) / this.EXP_CURR_CONV;} else {IF(ISNOTBLANK(this.EMP_126) and ISBLANK(this.EMP_128)) {r = (this.EMP_126*this.EXP_DEF_NUM_MONTHS) / this.EXP_CURR_CONV;} else {r=\"\";}}}}}}} NVL(r,0);",
                        "errorType":"AUTOCORRECT",
                        "validationType":"expression",
                        "_id":"5a3cecbfa9e3970016d8d2e2",
                        "category":"input_data",
                        "dependentColumns":[  

                        ]
                     }
                  ]
               },
               {  
                  "code":"EXP_OTH_G_ALLOW",
                  "dataType":"double",
                  "questionType":"double",
                  "validations":[  
                     {  
                        "validationType":"expression",
                        "errorType":"AUTOCORRECT",
                        "expression":"r = NVL(this.EMP_137,0) + NVL(this.EMP_139,0) + NVL(this.EMP_140,0) + NVL(this.EMP_141,0) + NVL(this.EMP_142,0) + NVL(this.EMP_143,0) + NVL(this.EMP_144,0) + NVL(this.EMP_145,0) + NVL(this.EMP_146,0) + NVL(this.EMP_147,0) + NVL(this.EMP_148,0) + NVL(this.EMP_149,0) + NVL(this.EMP_151,0) + NVL(this.EMP_152,0) + NVL(this.EMP_153,0) + NVL(this.EMP_155,0) + NVL(this.EMP_156,0) + NVL(this.EMP_157,0) + NVL(this.EMP_158,0) + NVL(this.EMP_159,0) + NVL(this.EMP_160,0) + NVL(this.EMP_161,0) + NVL(this.EMP_162,0) + NVL(this.EMP_163,0) + NVL(this.EMP_164,0) + NVL(this.EMP_165,0) + NVL(this.EMP_166,0) + NVL(this.EMP_168,0) + NVL(this.EMP_169,0) + NVL(this.EMP_170,0) + NVL(this.EMP_171,0) + NVL(this.EMP_172,0) + NVL(this.EMP_173,0) + NVL(this.EMP_174,0) + NVL(this.EMP_175,0) + NVL(this.EMP_176,0) + NVL(this.EMP_177,0) + NVL(this.EMP_178,0) + NVL(this.EMP_179,0) + NVL(this.EMP_180,0) + NVL(this.EMP_181,0) + NVL(this.EMP_182,0) + NVL(this.EMP_183,0) + NVL(this.EMP_184,0) + NVL(this.EMP_186,0) + NVL(this.EMP_187,0) + NVL(this.EMP_188,0) + NVL(this.EMP_189,0) / this.EXP_CURR_CONV + NVL(this.EMP_190,0) + NVL(this.EMP_194,0) + NVL(this.EMP_195,0) + NVL(this.EMP_196,0) + NVL(this.EMP_197,0) + NVL(this.EMP_198,0) + NVL(this.EMP_199,0) + NVL(this.EMP_200,0) + NVL(this.EMP_201,0) + NVL(this.EMP_202,0) + NVL(this.EMP_203,0) + NVL(this.EMP_204,0) + NVL(this.EMP_205,0) + NVL(this.EMP_206,0) + NVL(this.EMP_207,0) + NVL(this.EMP_208,0) + NVL(this.EMP_209,0) + NVL(this.EMP_210,0) + NVL(this.EMP_211,0) + NVL(this.EMP_212,0) + NVL(this.EMP_213,0) + NVL(this.EMP_214,0) + NVL(this.EMP_215,0) + NVL(this.EMP_216,0) + NVL(this.EMP_217,0) + NVL(this.EMP_218,0) + NVL(this.EMP_219,0) + NVL(this.EMP_220,0) + NVL(this.EMP_221,0) + NVL(this.EMP_222,0) + NVL(this.EMP_223,0) + NVL(this.EMP_224,0) + NVL(this.EMP_225,0) + NVL(this.EMP_227,0) + NVL(this.EMP_228,0) + NVL(this.EMP_229,0); IF(contextData.ctryCode == \"ZA\") { s = 0; } else { s = NVL(this.EMP_167,0); } IF(contextData.ctryCode == \"ZA\") { t = 0; } else { t = NVL(this.EMP_185,0); } IF(contextData.ctryCode == \"ZA\") { u = 0; } else { u= NVL(this.EMP_226,0); } r+s+t+u;",
                        "parameter":"",
                        "_id":"5a2a81f92dbe8d00153710c8",
                        "category":"input_data",
                        "dependentColumns":[  

                        ]
                     }
                  ]
               },
               {  
                  "code":"EXP_COMP2",
                  "dataType":"double",
                  "questionType":"double",
                  "validations":[  
                     {  
                        "validationType":"expression",
                        "errorType":"AUTOCORRECT",
                        "expression":"NVL(this.EXP_COMP1,0) + NVL(this.EXP_OTH_G_ALLOW,0);",
                        "parameter":"",
                        "_id":"5a2a82502dbe8d00153710ca",
                        "category":"input_data",
                        "dependentColumns":[  

                        ]
                     }
                  ]
               },
               {  
                  "code":"EXP_BONUS_APER",
                  "dataType":"double",
                  "questionType":"double",
                  "validations":[  
                     {  
                        "validationType":"expression",
                        "errorType":"AUTOCORRECT",
                        "expression":"IF(this.EXP_COMP1 <= 0 OR ISBLANK(this.EMP_234)) { r = \"\"; } else { r =100 * this.EMP_234 / this.EXP_COMP1; } r; ",
                        "parameter":"",
                        "_id":"5a2a82e92dbe8d00153710cc",
                        "category":"input_data",
                        "dependentColumns":[  

                        ]
                     }
                  ]
               },
               {  
                  "code":"EXP_COMM_APER",
                  "dataType":"double",
                  "questionType":"double",
                  "validations":[  
                     {  
                        "validationType":"expression",
                        "errorType":"AUTOCORRECT",
                        "expression":"IF(this.EXP_COMP1 <= 0 OR ISBLANK(this.EMP_242)) { r = \"\"; } else { r =100 * this.EMP_242 / this.EXP_COMP1; } r; ",
                        "parameter":"",
                        "_id":"5a2a83532dbe8d00153710ce",
                        "category":"input_data",
                        "dependentColumns":[  

                        ]
                     }
                  ]
               },
               {  
                  "code":"EXP_SALCOM_APER",
                  "dataType":"double",
                  "questionType":"double",
                  "validations":[  
                     {  
                        "validationType":"expression",
                        "errorType":"AUTOCORRECT",
                        "expression":"IF(this.EXP_COMP1 <= 0 OR ISBLANK(this.EMP_243)) { r = \"\"; } else { r =100 * this.EMP_243 / this.EXP_COMP1; } r; ",
                        "parameter":"",
                        "_id":"5a2a83bf2dbe8d00153710d0",
                        "category":"input_data",
                        "dependentColumns":[  

                        ]
                     }
                  ]
               },
               {  
                  "code":"EXP_COMP3ACT",
                  "dataType":"double",
                  "questionType":"double",
                  "validations":[  
                     {  
                        "validationType":"expression",
                        "errorType":"AUTOCORRECT",
                        "expression":"this.EXP_COMP2 + NVL(this.EMP_234,0) + NVL(this.EMP_242,0) + NVL(this.EMP_243,0) + NVL(this.EMP_250,0) + NVL(this.EMP_251,0) / this.EXP_CURR_CONV + NVL(this.EMP_258,0) + NVL(this.EMP_259,0) + NVL(this.EMP_261,0) + NVL(this.EMP_264 * 12 ,0) + NVL(this.EMP_266,0) + NVL(this.EMP_269,0);",
                        "parameter":"",
                        "_id":"5a2a84162dbe8d00153710d2",
                        "category":"input_data",
                        "dependentColumns":[  

                        ]
                     }
                  ]
               },
               {  
                  "code":"EXP_KIWI1",
                  "dataType":"string",
                  "questionType":"text",
                  "validations":[  
                     {  
                        "validationType":"expression",
                        "errorType":"AUTOCORRECT",
                        "expression":"(ISNOTBLANK(this.EMP_345) AND ISBLANK(this.EMP_344)) OR (ISNOTBLANK(this.EMP_346) AND ISBLANK(this.EMP_348)) OR (ISNOTBLANK(this.EMP_347) AND ISBLANK(this.EMP_349));",
                        "parameter":"",
                        "_id":"5a2a84ff2dbe8d00153710d8",
                        "category":"input_data",
                        "dependentColumns":[  

                        ]
                     }
                  ]
               },
               {  
                  "code":"EXP_KIWI2",
                  "dataType":"string",
                  "questionType":"text",
                  "validations":[  
                     {  
                        "validationType":"expression",
                        "errorType":"AUTOCORRECT",
                        "expression":"(ISNOTBLANK(this.EMP_344) AND ISBLANK(this.EMP_345)) OR (ISNOTBLANK(this.EMP_348) AND ISBLANK(this.EMP_346)) OR (ISNOTBLANK(this.EMP_349) AND ISBLANK(this.EMP_347));",
                        "parameter":"",
                        "_id":"5a2a85682dbe8d00153710da",
                        "category":"input_data",
                        "dependentColumns":[  

                        ]
                     }
                  ]
               },
               {  
                  "code":"EXP_KIWI3",
                  "dataType":"string",
                  "questionType":"text",
                  "validations":[  
                     {  
                        "validationType":"expression",
                        "errorType":"AUTOCORRECT",
                        "expression":"ISNOTBLANK(this.EMP_345) AND ISNOTBLANK(this.EMP_346) AND ISNOTBLANK(this.EMP_347);",
                        "parameter":"",
                        "_id":"5a2a86332dbe8d00153710dc",
                        "category":"input_data",
                        "dependentColumns":[  

                        ]
                     }
                  ]
               },
               {  
                  "code":"EXP_KIWI4",
                  "dataType":"string",
                  "questionType":"text",
                  "validations":[  
                     {  
                        "validationType":"expression",
                        "errorType":"AUTOCORRECT",
                        "expression":"ISNOTBLANK(this.EMP_344)  AND (ISNOTBLANK(this.EMP_348) OR ISNOTBLANK(this.EMP_349)) OR ISNOTBLANK(this.EMP_348) AND (ISNOTBLANK(this.EMP_344) OR ISNOTBLANK(this.EMP_349)) OR ISNOTBLANK(this.EMP_349) AND (ISNOTBLANK(this.EMP_348) OR ISNOTBLANK(this.EMP_344));",
                        "parameter":"",
                        "_id":"5a2a86632dbe8d00153710de",
                        "category":"input_data",
                        "dependentColumns":[  

                        ]
                     }
                  ]
               },
               {  
                  "code":"EXP_KIWI5",
                  "dataType":"string",
                  "questionType":"text",
                  "validations":[  
                     {  
                        "validationType":"expression",
                        "errorType":"AUTOCORRECT",
                        "expression":"ISNOTBLANK(this.EMP_129) AND ISBLANK(this.EMP_345) AND ISBLANK(this.EMP_346) AND ISBLANK (this.EMP_347);",
                        "parameter":"",
                        "_id":"5a2a86852dbe8d00153710e0",
                        "category":"input_data",
                        "dependentColumns":[  

                        ]
                     }
                  ]
               },
               {  
                  "code":"EXP_KIWI6",
                  "dataType":"string",
                  "questionType":"text",
                  "validations":[  
                     {  
                        "validationType":"expression",
                        "errorType":"AUTOCORRECT",
                        "expression":"NVL(this.EMP_345,0) > 50000 OR NVL(this.EMP_346,0) > 50000 OR NVL(this.EMP_347,0) > 50000;",
                        "parameter":"",
                        "_id":"5a2a86a72dbe8d00153710e2",
                        "category":"input_data",
                        "dependentColumns":[  

                        ]
                     }
                  ]
               },
               {  
                  "code":"EXP_CAR_MLEASE",
                  "dataType":"double",
                  "questionType":"double",
                  "validations":[  
                     {  
                        "validationType":"expression",
                        "errorType":"AUTOCORRECT",
                        "expression":"NVL(this.EMP_397,0) / 13",
                        "parameter":"",
                        "_id":"5a2a89e42dbe8d0015371110",
                        "category":"input_data",
                        "dependentColumns":[  

                        ]
                     }
                  ]
               },
               {  
                  "code":"EXP_ANN_PACK",
                  "dataType":"double",
                  "questionType":"double",
                  "validations":[  
                     {  
                        "validationType":"expression",
                        "errorType":"AUTOCORRECT",
                        "expression":"IF(<<contextData.ctryCode>> == \"ZA\") { r = NVL(<<this.EMP_129>>,0) + NVL(<<this.EMP_138>>,0) + NVL(<<this.EMP_167>>,0) + NVL(<<this.EMP_185>>,0) + NVL(<<this.EMP_226>>,0) + NVL(<<this.EMP_303>>,0) + NVL(<<this.EMP_339>>,0) + NVL(<<this.EMP_371>>,0) + NVL(<<this.EMP_387>>,0); } else { r =\"\"; } r; ",
                        "parameter":"",
                        "_id":"5a2a8a0f2dbe8d0015371115",
                        "category":"input_data",
                        "dependentColumns":[  

                        ]
                     }
                  ]
               },
               {  
                  "code":"EMP_001",
                  "dataType":"string",
                  "questionType":"text",
                  "validations":[  

                  ]
               },
               {  
                  "code":"YOUR_EEID",
                  "dataType":"string",
                  "questionType":"text",
                  "validations":[  
                     {  
                        "parameter":"",
                        "expression":"ISBLANK(this.YOUR_EEID);",
                        "errorType":"ERROR",
                        "validationType":"expression",
                        "_id":"59f1c151f21d8400151f510e",
                        "category":"input_data",
                        "dependentColumns":[  

                        ]
                     }
                  ]
               },
               {  
                  "code":"POS_CODE",
                  "dataType":"string",
                  "questionType":"text",
                  "validations":[  

                  ]
               },
               {  
                  "code":"POS_TITLE",
                  "dataType":"string",
                  "questionType":"text",
                  "validations":[  

                  ]
               },
               {  
                  "code":"OLD_POSCODE",
                  "dataType":"string",
                  "questionType":"text",
                  "validations":[  

                  ]
               },
               {  
                  "code":"OLD_POSTITLE",
                  "dataType":"string",
                  "questionType":"text",
                  "validations":[  

                  ]
               },
               {  
                  "code":"EMP_010",
                  "dataType":"string",
                  "questionType":"dropdown",
                  "validations":[  

                  ],
                  "options":{  
                     "items":[  
                        {  
                           "value":"1",
                           "displayName":"Animal Health"
                        },
                        {  
                           "value":"2",
                           "displayName":"Bio/Pharmaceuticals"
                        },
                        {  
                           "value":"3",
                           "displayName":"Bio/Pharmaceuticals - Speciality"
                        },
                        {  
                           "value":"4",
                           "displayName":"Cardiovascular"
                        },
                        {  
                           "value":"5",
                           "displayName":"Generics"
                        },
                        {  
                           "value":"6",
                           "displayName":"Medical Devices: Capital Equipment"
                        },
                        {  
                           "value":"7",
                           "displayName":"Medical Devices: Consumables/Disposables"
                        },
                        {  
                           "value":"8",
                           "displayName":"Medical Devices: Durable Goods"
                        },
                        {  
                           "value":"9",
                           "displayName":"Medical Devices: Implantable Devices"
                        },
                        {  
                           "value":"10",
                           "displayName":"Oncology"
                        },
                        {  
                           "value":"11",
                           "displayName":"OTC"
                        },
                        {  
                           "value":"12",
                           "displayName":"Vaccines"
                        },
                        {  
                           "value":"NA",
                           "displayName":"Not applicable"
                        }
                     ]
                  }
               },
               {  
                  "code":"LIBSPEC_FLAG1",
                  "dataType":"string",
                  "questionType":"dropdown",
                  "validations":[  

                  ],
                  "options":{  
                     "items":[  
                        {  
                           "value":"1101",
                           "displayName":"< 4 Branches"
                        },
                        {  
                           "value":"1102",
                           "displayName":"4 to 8 Branches"
                        },
                        {  
                           "value":"1103",
                           "displayName":"9 to 12 Branches"
                        },
                        {  
                           "value":"1104",
                           "displayName":"> 12 Branches"
                        },
                        {  
                           "value":"1201",
                           "displayName":"Academic/Teaching and Learning"
                        },
                        {  
                           "value":"1202",
                           "displayName":"External Engagement"
                        },
                        {  
                           "value":"1203",
                           "displayName":"International"
                        },
                        {  
                           "value":"1204",
                           "displayName":"Research"
                        },
                        {  
                           "value":"1205",
                           "displayName":"Advancement"
                        },
                        {  
                           "value":"1206",
                           "displayName":"Indigenous Education"
                        },
                        {  
                           "value":"1301",
                           "displayName":"Acquisition Finance"
                        },
                        {  
                           "value":"1302",
                           "displayName":"Tax-Driven Financing"
                        },
                        {  
                           "value":"1303",
                           "displayName":"Project Advisory"
                        },
                        {  
                           "value":"1304",
                           "displayName":"Loan Workouts / Recoveries"
                        },
                        {  
                           "value":"1305",
                           "displayName":"Structuring/Advisory"
                        },
                        {  
                           "value":"1401",
                           "displayName":"Bakery"
                        },
                        {  
                           "value":"1402",
                           "displayName":"Dairy/Frozen Food"
                        },
                        {  
                           "value":"1403",
                           "displayName":"Dairy"
                        },
                        {  
                           "value":"1404",
                           "displayName":"Frozen Food"
                        },
                        {  
                           "value":"1405",
                           "displayName":"Deli/Bakery"
                        },
                        {  
                           "value":"1406",
                           "displayName":"Deli"
                        },
                        {  
                           "value":"1407",
                           "displayName":"Floral"
                        },
                        {  
                           "value":"1408",
                           "displayName":"General Merchandise/Health & Beauty Care"
                        },
                        {  
                           "value":"1409",
                           "displayName":"Meat"
                        },
                        {  
                           "value":"1410",
                           "displayName":"Produce"
                        },
                        {  
                           "value":"1411",
                           "displayName":"Seafood"
                        },
                        {  
                           "value":"1501",
                           "displayName":"Biology/Plant"
                        },
                        {  
                           "value":"1502",
                           "displayName":"Chemistry"
                        },
                        {  
                           "value":"1503",
                           "displayName":"Computer"
                        },
                        {  
                           "value":"1504",
                           "displayName":"Earth/Environment"
                        },
                        {  
                           "value":"1505",
                           "displayName":"Marine"
                        },
                        {  
                           "value":"1506",
                           "displayName":"Material"
                        },
                        {  
                           "value":"1507",
                           "displayName":"Medical"
                        },
                        {  
                           "value":"1508",
                           "displayName":"Physics"
                        },
                        {  
                           "value":"1509",
                           "displayName":"Public Health"
                        },
                        {  
                           "value":"NA",
                           "displayName":"Not applicable"
                        }
                     ]
                  }
               },
               {  
                  "code":"YOUR_TITLE",
                  "dataType":"string",
                  "questionType":"text",
                  "validations":[  

                  ]
               },
               {  
                  "code":"YOUR_CODE",
                  "dataType":"string",
                  "questionType":"text",
                  "validations":[  

                  ]
               },
               {  
                  "code":"YOUR_LEVEL",
                  "dataType":"string",
                  "questionType":"text",
                  "validations":[  

                  ]
               },
               {  
                  "code":"YOUR_GRADE",
                  "dataType":"string",
                  "questionType":"text",
                  "validations":[  

                  ]
               },
               {  
                  "code":"YOUR_OTHER",
                  "dataType":"string",
                  "questionType":"text",
                  "validations":[  

                  ]
               },
               {  
                  "code":"EMP_026",
                  "dataType":"string",
                  "questionType":"text",
                  "validations":[  

                  ]
               },
               {  
                  "code":"POS_CLASS",
                  "dataType":"int",
                  "questionType":"integer",
                  "validations":[  

                  ]
               },
               {  
                  "code":"EMP_031",
                  "dataType":"string",
                  "questionType":"dropdown",
                  "validations":[  

                  ],
                  "options":{  
                     "items":[  
                        {  
                           "value":"21",
                           "displayName":"0-3"
                        },
                        {  
                           "value":"22",
                           "displayName":"More than 3-6"
                        },
                        {  
                           "value":"23",
                           "displayName":"More than 6-13"
                        },
                        {  
                           "value":"24",
                           "displayName":"More than 13-26"
                        },
                        {  
                           "value":"25",
                           "displayName":"More than 26-51"
                        },
                        {  
                           "value":"26",
                           "displayName":"More than 51-103"
                        },
                        {  
                           "value":"27",
                           "displayName":"More than 103-205"
                        },
                        {  
                           "value":"28",
                           "displayName":"More than 205-359"
                        },
                        {  
                           "value":"29",
                           "displayName":"More than 359-628"
                        },
                        {  
                           "value":"30",
                           "displayName":"More than 628-1099"
                        },
                        {  
                           "value":"31",
                           "displayName":"More than 1099-1923"
                        },
                        {  
                           "value":"32",
                           "displayName":"More than 1923-3365"
                        },
                        {  
                           "value":"33",
                           "displayName":"More than 3365-5047"
                        },
                        {  
                           "value":"34",
                           "displayName":"More than 5047-7571"
                        },
                        {  
                           "value":"35",
                           "displayName":"More than 7571-11356"
                        },
                        {  
                           "value":"36",
                           "displayName":"More than 11356-17034"
                        },
                        {  
                           "value":"37",
                           "displayName":"More than 17034-25551"
                        },
                        {  
                           "value":"38",
                           "displayName":"More than 25551-38327"
                        },
                        {  
                           "value":"39",
                           "displayName":"More than 38327-57490"
                        },
                        {  
                           "value":"40",
                           "displayName":"More than 57490"
                        },
                        {  
                           "value":"NA",
                           "displayName":"Not Applicable"
                        }
                     ]
                  }
               },
               {  
                  "code":"EMP_036",
                  "dataType":"string",
                  "questionType":"dropdown",
                  "validations":[  
                     {  
                        "parameter":"",
                        "expression":"ISBLANK(this.EMP_036);",
                        "errorType":"ERROR",
                        "validationType":"expression",
                        "_id":"59f1c20ef21d8400151f510f",
                        "category":"input_data",
                        "dependentColumns":[  

                        ]
                     }
                  ],
                  "options":{  
                     "items":[  
                        {  
                           "value":"10",
                           "displayName":"Global"
                        },
                        {  
                           "value":"20",
                           "displayName":"Multi Regional"
                        },
                        {  
                           "value":"30",
                           "displayName":"Regional"
                        },
                        {  
                           "value":"50",
                           "displayName":"Multi Country"
                        },
                        {  
                           "value":"70",
                           "displayName":"In Country"
                        },
                        {  
                           "value":"80",
                           "displayName":"District"
                        },
                        {  
                           "value":"NA",
                           "displayName":"Not applicable"
                        }
                     ]
                  }
               },
               {  
                  "code":"EMP_037",
                  "dataType":"int",
                  "questionType":"integer",
                  "validations":[  
                     {  
                        "parameter":"",
                        "expression":" current_year = YEAR(NOW());\n( current_year - NVL(this.EMP_037,0)) < LOOK_UP_CHECK(\"COUNTRY\",\"CTX_CTRY_CODE = contextData.ctryCode\",\"AGE_HIRE_MIN\")\n OR this.EMP_037 < (current_year - 66);",
                        "errorType":"ERROR",
                        "validationType":"expression",
                        "_id":"5a04224e23212300164a48aa",
                        "category":"input_data",
                        "dependentColumns":[  

                        ]
                     }
                  ]
               },
               {  
                  "code":"EMP_038",
                  "dataType":"int",
                  "questionType":"integer",
                  "validations":[  
                     {  
                        "parameter":"",
                        "expression":" current_year = YEAR(NOW());\n ISNOTBLANK(this.EMP_038) AND !(this.EMP_038 >= (current_year - 61) AND  this.EMP_038 <= (current_year));",
                        "errorType":"ERROR",
                        "validationType":"expression",
                        "_id":"5a04228923212300164a48ab",
                        "category":"input_data",
                        "dependentColumns":[  

                        ]
                     }
                  ]
               },
               {  
                  "code":"EMP_044",
                  "dataType":"string",
                  "questionType":"dropdown",
                  "validations":[  

                  ],
                  "options":{  
                     "items":[  
                        {  
                           "value":"F",
                           "displayName":"F - Female"
                        },
                        {  
                           "value":"M",
                           "displayName":"M - Male"
                        },
                        {  
                           "value":"NA",
                           "displayName":"Not applicable"
                        }
                     ]
                  }
               },
               {  
                  "code":"EMP_047",
                  "dataType":"string",
                  "questionType":"dropdown",
                  "validations":[  

                  ]
               },
               {  
                  "code":"EMP_052",
                  "dataType":"string",
                  "questionType":"text",
                  "validations":[  

                  ]
               },
               {  
                  "code":"EMP_058A",
                  "dataType":"string",
                  "questionType":"dropdown",
                  "validations":[  

                  ],
                  "options":{  
                     "items":[  
                        {  
                           "value":"Y",
                           "displayName":"Yes"
                        },
                        {  
                           "value":"N",
                           "displayName":"No"
                        },
                        {  
                           "value":"NA",
                           "displayName":"Not applicable"
                        }
                     ]
                  }
               },
               {  
                  "code":"EMP_125",
                  "dataType":"double",
                  "questionType":"double",
                  "validations":[  
                     {  
                        "_id":"5a1e8d5473f09200150e345a",
                        "validationType":"expression",
                        "errorType":"ERROR",
                        "expression":"ISBLANK(this.EMP_125);",
                        "parameter":"",
                        "category":"input_data",
                        "dependentColumns":[  

                        ]
                     },
                     {  
                        "_id":"5a277d59de1ad300148c5590",
                        "validationType":"required",
                        "isFatal":false,
                        "mda":"clear_value",
                        "category":"input_data",
                        "dependentColumns":[  

                        ],
                        "errorType":"ERROR"
                     },
                     {  
                        "mda":"exclude_row",
                        "referenceTableName":"ops_audit_ly_career_stream_mth_base",
                        "validationType":"rangeValidationRefTable",
                        "_id":"5a28307834fee900156c241e",
                        "category":"input_data",
                        "dependentColumns":[  

                        ]
                     }
                  ]
               },
               {  
                  "code":"EMP_143",
                  "dataType":"double",
                  "questionType":"double",
                  "validations":[  
                     {  
                        "referenceTableName":"ops_audit_ly_career_stream_clean_alw",
                        "validationType":"rangeValidationRefTable",
                        "_id":"5a2a91322dbe8d001537113a",
                        "category":"input_data",
                        "dependentColumns":[  

                        ]
                     }
                  ]
               },
               {  
                  "code":"EMP_165",
                  "dataType":"double",
                  "questionType":"double",
                  "validations":[  
                     {  
                        "referenceTableName":"ops_audit_ly_allowance_hol_allow",
                        "validationType":"rangeValidationRefTable",
                        "_id":"5a2804a234fee900156c2406",
                        "category":"input_data",
                        "dependentColumns":[  

                        ]
                     }
                  ]
               },
               {  
                  "code":"EMP_172",
                  "dataType":"double",
                  "questionType":"double",
                  "validations":[  
                     {  
                        "referenceTableName":"ops_audit_ly_allowance_meal_allow",
                        "validationType":"rangeValidationRefTable",
                        "_id":"5a28108f34fee900156c2412",
                        "category":"input_data",
                        "dependentColumns":[  

                        ]
                     }
                  ]
               },
               {  
                  "code":"EMP_185",
                  "dataType":"double",
                  "questionType":"double",
                  "validations":[  
                     {  
                        "referenceTableName":"ops_audit_ly_career_stream_oth_alw",
                        "validationType":"rangeValidationRefTable",
                        "_id":"5a2a756ad4c9a2001543634f",
                        "category":"input_data",
                        "dependentColumns":[  

                        ]
                     }
                  ]
               },
               {  
                  "code":"EMP_199",
                  "dataType":"double",
                  "questionType":"double",
                  "validations":[  
                     {  
                        "referenceTableName":"ops_audit_ly_allowance_profit_bon_act_a_a",
                        "validationType":"rangeValidationRefTable",
                        "_id":"5a29101134fee900156c2448",
                        "category":"input_data",
                        "dependentColumns":[  

                        ]
                     }
                  ]
               },
               {  
                  "code":"EMP_225",
                  "dataType":"double",
                  "questionType":"double",
                  "validations":[  
                     {  
                        "referenceTableName":"ops_audit_ly_allowance_xmas_allow",
                        "validationType":"rangeValidationRefTable",
                        "_id":"5a290b7534fee900156c2439",
                        "category":"input_data",
                        "dependentColumns":[  

                        ]
                     }
                  ]
               },
               {  
                  "code":"EMP_233",
                  "dataType":"string",
                  "questionType":"dropdown",
                  "validations":[  
                     {  
                        "validationType":"eligibility",
                        "_id":"5a058e356462600015da0b77",
                        "category":"input_data",
                        "dependentColumns":[  
                           "EMP_234",
                           "EMP_235",
                           "EMP_236",
                           "EMP_237",
                           "EMP_238",
                           "EMP_239",
                           "EMP_258"
                        ]
                     },
                     {  
                        "parameter":"",
                        "expression":"this.EMP_233 == \"Y\" AND this.EMP_240 == \"Y\";",
                        "errorType":"ALERT",
                        "validationType":"expression",
                        "_id":"5a37cfc6db3b970016150fd4",
                        "category":"input_data",
                        "dependentColumns":[  

                        ]
                     }
                  ],
                  "options":{  
                     "items":[  
                        {  
                           "value":"Y",
                           "displayName":"Yes"
                        },
                        {  
                           "value":"N",
                           "displayName":"No"
                        },
                        {  
                           "value":"NA",
                           "displayName":"Not applicable"
                        }
                     ]
                  }
               },
               {  
                  "code":"EMP_234",
                  "dataType":"double",
                  "questionType":"double",
                  "validations":[  
                     {  
                        "parameter":"",
                        "expression":"r1=0;\nvalue1 = 100*(this.EMP_234 / this.EMP_129);\nr2=0;\nIF(SUBSTR(this.POS_CODE,12,1)==\"E\") \n{r2=125;} \nELSE \n {IF(SUBSTR(this.POS_CODE,12,1)== \"M\" OR SUBSTR(this.POS_CODE,12,1) == \"I\" ) \n {r2=50;} \n  ELSE \n {r2=40;} \n} \nr2;\nvalue2=r2;\n\nIF(ISBLANK(this.EMP_234) OR ISBLANK(this.EMP_129) OR ISBLANK(this.POS_CODE)) \n{r1=false;}\nELSE\n {IF(value1>value2)\n {r1=true;}\n ELSE\n {r1=false;} \n}\nr1;",
                        "errorType":"ALERT",
                        "validationType":"expression",
                        "_id":"5a0432b323212300164a48b7",
                        "category":"input_data",
                        "dependentColumns":[  

                        ]
                     },
                     {  
                        "_id":"5a04334823212300164a48b8",
                        "validationType":"expression",
                        "errorType":"ALERT",
                        "expression":"r1=0;\nvalue1 = 100*(this.EMP_234 / this.EMP_129);\nr2=0;\nIF(SUBSTR(this.POS_CODE,12,1)==\"E\") \n{r2=4;} \nELSE \n {IF(SUBSTR(this.POS_CODE,12,1)== \"M\" OR SUBSTR(this.POS_CODE,12,1) == \"I\" ) \n {r2=2;} \n  ELSE \n {r2=1;} \n} \nr2;\nvalue2=r2;\n\nIF(ISBLANK(this.EMP_234) OR ISBLANK(this.EMP_129) OR ISBLANK(this.POS_CODE)) \n{r1=false;}\nELSE\n {IF(value1>=0.3 and value1<value2)\n {r1=true;}\n ELSE\n {r1=false;} \n}\nr1;",
                        "parameter":"",
                        "category":"input_data",
                        "dependentColumns":[  

                        ]
                     },
                     {  
                        "parameter":"",
                        "expression":"(this.EMP_234 == this.EMP_242) OR (this.EMP_234 > 0 AND this.EMP_242 > 0);",
                        "errorType":"ALERT",
                        "validationType":"expression",
                        "_id":"5a33e16769693a0015a753c4",
                        "category":"input_data",
                        "dependentColumns":[  

                        ]
                     }
                  ]
               },
               {  
                  "code":"EMP_237",
                  "dataType":"double",
                  "questionType":"double",
                  "validations":[  
                     {  
                        "_id":"5a09aa72e8fc0a0015e4d04d",
                        "validationType":"expression",
                        "errorType":"ALERT",
                        "expression":"this.EMP_234  == this.EMP_237;",
                        "parameter":"",
                        "category":"input_data",
                        "dependentColumns":[  

                        ]
                     },
                     {  
                        "referenceTableName":"ops_audit_ly_poscode_bon_tgt_a_a",
                        "validationType":"rangeValidationRefTable",
                        "_id":"5a26a6572565f500154a596a",
                        "category":"input_data",
                        "dependentColumns":[  

                        ]
                     }
                  ]
               },
               {  
                  "code":"EMP_240",
                  "dataType":"string",
                  "questionType":"dropdown",
                  "validations":[  
                     {  
                        "validationType":"eligibility",
                        "_id":"5a378153279b290016dd01e9",
                        "category":"input_data",
                        "dependentColumns":[  
                           "EMP_242",
                           "EMP_244",
                           "EMP_245",
                           "EMP_246",
                           "EMP_247",
                           "EMP_248"
                        ]
                     }
                  ],
                  "options":{  
                     "items":[  
                        {  
                           "value":"Y",
                           "displayName":"Yes"
                        },
                        {  
                           "value":"N",
                           "displayName":"No"
                        },
                        {  
                           "value":"NA",
                           "displayName":"Not applicable"
                        }
                     ]
                  }
               },
               {  
                  "code":"EMP_242",
                  "dataType":"double",
                  "questionType":"double",
                  "validations":[  
                     {  
                        "parameter":"",
                        "expression":"r1=0;\nvalue1 = 100*(this.EMP_242/ this.EMP_129);\nvalue2 = 1.01 * this.EMP_247;\n\nIF(ISBLANK(this.EMP_242) OR ISBLANK(this.EMP_247) OR ISBLANK(this.EMP_129)) \n{r1=false;}\nELSE\n{IF(value1>value2)\n{r1=true;}\nELSE\n{r1=false;} \n}\nr1;",
                        "errorType":"ALERT",
                        "validationType":"expression",
                        "_id":"5a0426b423212300164a48b3",
                        "category":"input_data",
                        "dependentColumns":[  

                        ]
                     },
                     {  
                        "parameter":"",
                        "expression":"r1=0;\nvalue1 = 100*(this.EMP_242 / this.EMP_129);\nIF(ISBLANK(this.EMP_242) OR ISBLANK(this.EMP_244) OR ISBLANK(this.EMP_129)) \n{r1=false;}\nELSE\n{IF(ABS(value1- this.EMP_244)<=0.1)\n{r1=true;}\nELSE\n{r1=false;}\n}\nr1;",
                        "errorType":"ALERT",
                        "validationType":"expression",
                        "_id":"5a0426b423212300164a48b2",
                        "category":"input_data",
                        "dependentColumns":[  

                        ]
                     }
                  ]
               },
               {  
                  "code":"EMP_245",
                  "dataType":"double",
                  "questionType":"double",
                  "validations":[  
                     {  
                        "referenceTableName":"ops_audit_ly_poscode_incent_tgt_a_a",
                        "validationType":"rangeValidationRefTable",
                        "_id":"5a26af692565f500154a5979",
                        "category":"input_data",
                        "dependentColumns":[  

                        ]
                     }
                  ]
               },
               {  
                  "code":"EMP_250",
                  "dataType":"double",
                  "questionType":"double",
                  "validations":[  
                     {  
                        "referenceTableName":"ops_audit_ly_allowance_bonus_oth",
                        "validationType":"rangeValidationRefTable",
                        "_id":"5a27fdf034fee900156c23f8",
                        "category":"input_data",
                        "dependentColumns":[  

                        ]
                     }
                  ]
               },
               {  
                  "code":"EMP_261",
                  "dataType":"double",
                  "questionType":"double",
                  "validations":[  
                     {  
                        "referenceTableName":"ops_audit_ly_poscode_profitact",
                        "validationType":"rangeValidationRefTable",
                        "_id":"5a268fbb2565f500154a5965",
                        "category":"input_data",
                        "dependentColumns":[  

                        ]
                     }
                  ]
               },
               {  
                  "code":"EMP_278",
                  "dataType":"string",
                  "questionType":"dropdown",
                  "validations":[  
                     {  
                        "validationType":"eligibility",
                        "_id":"5a38f234868f7500168f221c",
                        "category":"input_data",
                        "dependentColumns":[  
                           "EMP_279",
                           "EMP_280",
                           "EMP_282",
                           "EMP_284",
                           "EMP_286",
                           "EMP_288",
                           "EMP_281",
                           "EMP_283",
                           "EMP_285",
                           "EMP_287",
                           "EMP_289",
                           "EMP_290",
                           "EMP_291",
                           "EMP_292"
                        ]
                     }
                  ],
                  "options":{  
                     "items":[  
                        {  
                           "value":"Y",
                           "displayName":"Yes"
                        },
                        {  
                           "value":"N",
                           "displayName":"No"
                        },
                        {  
                           "value":"NA",
                           "displayName":"Not applicable"
                        }
                     ]
                  }
               },
               {  
                  "code":"EMP_280",
                  "dataType":"string",
                  "questionType":"text",
                  "validations":[  

                  ]
               },
               {  
                  "code":"EMP_281",
                  "dataType":"double",
                  "questionType":"double",
                  "validations":[  

                  ]
               },
               {  
                  "code":"EMP_282",
                  "dataType":"string",
                  "questionType":"text",
                  "validations":[  

                  ]
               },
               {  
                  "code":"EMP_283",
                  "dataType":"double",
                  "questionType":"double",
                  "validations":[  

                  ]
               },
               {  
                  "code":"EMP_284",
                  "dataType":"string",
                  "questionType":"text",
                  "validations":[  

                  ]
               },
               {  
                  "code":"EMP_285",
                  "dataType":"double",
                  "questionType":"double",
                  "validations":[  

                  ]
               },
               {  
                  "code":"EMP_379",
                  "dataType":"string",
                  "questionType":"dropdown",
                  "validations":[  

                  ],
                  "options":{  
                     "items":[  
                        {  
                           "value":"1",
                           "displayName":"Not eligible for any type of Company Car Benefit"
                        },
                        {  
                           "value":"2",
                           "displayName":"Company Car offered for business use only"
                        },
                        {  
                           "value":"3",
                           "displayName":"Company Car offered for business and personal use"
                        },
                        {  
                           "value":"4",
                           "displayName":"Allowance in Lieu of Company Car (Cash Allowance)"
                        },
                        {  
                           "value":"5",
                           "displayName":"Choice between Company Car (business and personal use) and Cash Allowance"
                        },
                        {  
                           "value":"NA",
                           "displayName":"Not applicable"
                        }
                     ]
                  }
               },
               {  
                  "code":"SYSTEM_EXCLUDE_EMPLOYEE",
                  "dataType":"string",
                  "questionType":"text",
                  "validations":[  

                  ]
               },
               {  
                  "code":"CLIENT_EXCLUDE_EMPLOYEE",
                  "dataType":"string",
                  "questionType":"text",
                  "validations":[  

                  ]
               }
            ]
         }
      }
   ]
}