{
	"entities": [{
		"otherSectionsData": {},


		"contextData": {
			"campaignId": "5a166726322cfb00185e6da4",
			"companyId": "5a65c5bece9b1d00180873b6",
			"orgSize": null,
			"companyName": "POLAND_test",
			"ctryCode": "PL",
			"sectionId": "RandomSectionCode1",
			"grpCode": "",
			"cpyCode": "",
			"uniqueIdColumnCode": "YOUR_EEID",
			"industry": {
				"superSector": "CH",
				"sector": "209"
			}
		},
		"sectionStructure": {
			"columns": [{
				"code": "YOUR_EEID",
				"dataType": "string",
				"questionType": "text",
				"validations": [{
					"mda": "exclude_row",
					"parameter": "",
					"expression": "ISBLANK(this.YOUR_EEID);",
					"errorType": "ERROR",
					"validationType": "expression",
					"_id": "5a6c69823a51580018605a78",
					"category": "input_data",
					"dependentColumns": []
				}],
				"mappedColumnName": "YOUR_EEID"
			}, {
				"code": "YOUR_TITLE",
				"dataType": "string",
				"questionType": "text",
				"validations": [],
				"mappedColumnName": "TITLE_Upload"
			},
			{
				"code": "Company_ID_Upload",
				"dataType": "string",
				"questionType": "text",
				"validations": [],
				"mappedColumnName": "Company_ID_Upload"
			},
			{
				"code": "Country_ID_Upload",
				"dataType": "string",
				"questionType": "text",
				"validations": [],
				"mappedColumnName": "Country_ID_Upload"
			},
			{
				"code": "RandomQuesCode1",
				"dataType": "int",
				"questionType": "integer",
				"validations": [{
					"_id": "5a671aa71f1d39001606c8cf",
					"validationType": "expression",
					"errorType": "ERROR",
					"expression": "this.RandomQuesCode1<10;",
					"parameter": "",
					"mda": "",
					"category": "input_data",
					"dependentColumns": []
				}, {
					"_id": "5a71ba82ce685b00183e3eaf",
					"validationType": "expression",
					"errorType": "ALERT",
					"expression": "ISBLANK(this.RandomQuesCode1);",
					"parameter": "",
					"mda": "",
					"category": "input_data",
					"dependentColumns": []
				}],
				"mappedColumnName": "AutoM1_Upload"
			}, {
				"code": "RandomQuesCode2",
				"dataType": "date",
				"questionType": "date",
				"validations": [{
					"mda": "",
					"parameter": "",
					"expression": "YEAR(TO_DATE(this.RandomQuesCode2,\"yyyy-MM-dd\"))<2017;",
					"errorType": "ALERT",
					"validationType": "expression",
					"_id": "5a66fbf6653d75001801c4a8",
					"category": "input_data",
					"dependentColumns": []
				}],
				"mappedColumnName": "AutoM2_Upload"
			}, {
				"code": "RandomQuesCode3",
				"dataType": "string",
				"questionType": "dropdown",
				"validations": [],
				"options": {
					"items": [{
						"value": "Y",
						"displayName": "Yes"
					}, {
						"value": "N",
						"displayName": "No"
					}, {
						"value": "MB",
						"displayName": "May be"
					}]
				},
				"mappedColumnName": "AutoM3_Upload"
			}, {
				"code": "RandomQuesCode4",
				"dataType": "double",
				"questionType": "double",
				"validations": [],
				"mappedColumnName": "AutoM4_Upload"
			}, {
				"code": "RandomQuesCode5",
				"dataType": "int",
				"questionType": "integer",
				"validations": [],
				"mappedColumnName": "AutoM5_Upload"
			}, {
				"code": "RandomQuesCode6",
				"dataType": "int",
				"questionType": "integer",
				"validations": [{
					"_id": "5a44daa2fc42f1001749c443",
					"validationType": "expression",
					"errorType": "ENHANCEMENT",
					"expression": "this.RandomQuesCode6>50;",
					"parameter": "",
					"category": "input_data",
					"dependentColumns": []
				}],
				"mappedColumnName": "AutoM6_Upload"
			}, {
				"code": "POS_CLASS",
				"dataType": "int",
				"questionType": "integer",
				"validations": [],
				"mappedColumnName": "POS_CLASS"
			}, {
				"code": "YOUR_CODE",
				"dataType": "string",
				"questionType": "text",
				"validations": [],
				"mappedColumnName": "YOUR_CODE"
			}, {
				"code": "YOUR_LEVEL",
				"dataType": "string",
				"questionType": "text",
				"validations": [],
				"mappedColumnName": "YOUR_LEVEL"
			}, {
				"code": "YOUR_GRADE",
				"dataType": "string",
				"questionType": "text",
				"validations": [],
				"mappedColumnName": "YOUR_GRADE"
			}, {
				"code": "POS_CODE",
				"dataType": "string",
				"questionType": "text",
				"validations": [{
					"mda": "",
					"parameter": "",
					"expression": "ISBLANK(this.YOUR_TITLE) AND ISBLANK(this.POS_CODE);",
					"errorType": "ERROR",
					"validationType": "expression",
					"_id": "5a71b19c0b0ff400170ce0a5",
					"category": "file_acceptance",
					"dependentColumns": []
				}],
				"mappedColumnName": "POS_CODE"
			}, {
				"code": "YOUR_OTHER",
				"dataType": "string",
				"questionType": "text",
				"validations": [],
				"mappedColumnName": "YOUR_OTHER"
			}, {
				"code": "EMP_125",
				"dataType": "double",
				"questionType": "double",
				"validations": [{
					"mda": "exclude_row",
					"parameter": "",
					"expression": "FIND_IN_SET(contextData.ctryCode,[\"BD\",\"CN\",\"HK\",\"ID\",\"IN\",\"JP\",\"KH\",\"KR\",\"LK\",\"MM\",\"MY\",\"PH\",\"PK\",\"SG\",\"TH\",\"TW\",\"VN\"]) AND ISBLANK(this.EMP_125);",
					"errorType": "ERROR",
					"validationType": "expression",
					"_id": "5a79700d2e15c40018a0113a",
					"category": "input_data",
					"dependentColumns": []
				}, {
					"mda": "",
					"parameter": "",
					"expression": "ISBLANK(this.EMP_125) AND ISBLANK(this.EMP_129);",
					"errorType": "ERROR",
					"validationType": "expression",
					"_id": "5a79700d2e15c40018a01139",
					"category": "file_acceptance",
					"dependentColumns": []
				}],
				"mappedColumnName": "Month_Base_Upload"
			}, {
				"code": "EMP_128",
				"dataType": "double",
				"questionType": "double",
				"validations": [{
					"maxError": 16,
					"minError": 12,
					"maxAlert": 16,
					"minAlert": 12,
					"mda": "12;",
					"_id": "59f193ce1b74370015235856",
					"validationType": "range",
					"category": "input_data",
					"dependentColumns": []
				}, {
					"mda": "12;",
					"parameter": "",
					"expression": "ISBLANK(this.EMP_128);",
					"errorType": "ERROR",
					"validationType": "expression",
					"_id": "5a6c63db4bbbbd00182bf379",
					"category": "input_data",
					"dependentColumns": []
				}],
				"mappedColumnName": "EMP_128"
			}, {
				"code": "EMP_129",
				"dataType": "double",
				"questionType": "double",
				"validations": [{
					"mda": "exclude_row",
					"parameter": "",
					"expression": "FIND_IN_SET(contextData.ctryCode,[\"AT\",\"BE\",\"BG\",\"CH\",\"CZ\",\"DE\",\"DK\",\"EE\",\"ES\",\"FI\",\"FR\",\"GB\",\"GR\",\"HR\",\"HU\",\"IE\",\"IT\",\"KZ\",\"LT\",\"LV\",\"NL\",\"NO\",\"PL\",\"PT\",\"RO\",\"RS\",\"RU\",\"SE\",\"SI\",\"SK\",\"TR\",\"UA\"]) AND ISBLANK(this.EMP_125) AND ISBLANK(this.EMP_129);",
					"errorType": "ERROR",
					"validationType": "expression",
					"_id": "5a7444ee239d550018a0f0e0",
					"category": "input_data",
					"dependentColumns": []
				}, {
					"_id": "5a575abc648a740017e233b8",
					"validationType": "expression",
					"errorType": "ALERT",
					"expression": "ratio = 100*(this.EMP_129 /  this.EMP_131);\nEXP_SALINFLATION = NVL(LOOK_UP_CHECK(\"country\",\"CTX_CTRY_CODE = contextData.ctryCode\",\"SALARY_INFLATION\"),0);\n\n(this.EMP_042 == \"N\" OR ISBLANK(this.EMP_042))\n AND this.EMP_131 > 0 AND  this.EMP_129 > 0 \n AND ( (ratio  - 100) < -5   OR ( (ratio - 100) > (EXP_SALINFLATION * 100 + 20 )) ) ;",
					"parameter": "",
					"category": "input_data",
					"dependentColumns": []
				}, {
					"mda": "exclude_row",
					"parameter": "",
					"expression": "ISBLANK(this.EMP_129) AND ISBLANK(this.EMP_130);",
					"errorType": "ERROR",
					"validationType": "expression",
					"_id": "5a7444ee239d550018a0f0de",
					"category": "input_data",
					"dependentColumns": []
				}, {
					"_id": "5a7447e72bba61001854c909",
					"validationType": "expression",
					"errorType": "ERROR",
					"expression": "ISBLANK(this.HOURLY_RATE) AND ISBLANK(this.EMP_129);",
					"parameter": "",
					"mda": "exclude_row",
					"category": "input_data",
					"dependentColumns": []
				}, {
					"mda": "",
					"parameter": "",
					"expression": "ISBLANK(this.EMP_125) AND ISBLANK(this.EMP_129) AND ISBLANK(this.EMP_130) AND ISBLANK(this.HOURLY_RATE);",
					"errorType": "ERROR",
					"validationType": "expression",
					"_id": "5a79a1092e15c40018a01142",
					"category": "file_acceptance",
					"dependentColumns": []
				}],
				"mappedColumnName": "Annual_Base_Upload"
			}]
		}
	}]
}